SoilName,MetCode,SOWREG,FREQUENCY,SUM_Shape_Area,AREA_Ha
allo,2540-15275,Mary,1,101510.5711,10.15105711
allo,2565-15265,Mary,1,1245158.622,124.5158622
aubu,2540-15275,Mary,77,26689059.36,2668.905936
aubu,2565-15265,Mary,69,20360015.33,2036.001533
aubu,2570-15245,Mary,11,7047920.341,704.7920341
aubu,2590-15240,Mary,21,7295628.223,729.5628223
aubu,2605-15245,Mary,9,2546079.748,254.6079748
burn,2565-15265,Mary,1,206992.635,20.6992635
chil,2540-15275,Mary,2,725854.0629,72.58540629
chil,2565-15265,Mary,36,13213037.97,1321.303797
chil,2570-15245,Mary,2,71683.20119,7.168320119
chil,2590-15240,Mary,1,325856.4814,32.58564814
chil,2595-15275,Mary,20,9839433.078,983.9433078
chil,2605-15245,Mary,2,277742.2004,27.77422004
chil,2615-15280,Mary,1,214260.5787,21.42605787
chil,2635-15280,Mary,2,166169.1798,16.61691798
fair,2540-15275,Mary,20,1567250.414,156.7250414
farn,2540-15275,Mary,3,269969.0142,26.99690142
farn,2565-15265,Mary,10,2089730.446,208.9730446
farn,2570-15245,Mary,4,572227.1005,57.22271005
farn,2595-15275,Mary,11,4527847.996,452.7847996
farn,2635-15280,Mary,1,144612.7758,14.46127758
kepn,2540-15275,Mary,18,4032641.329,403.2641329
kepn,2565-15265,Mary,37,14524767.43,1452.476743
kepn,2590-15240,Mary,1,260685.5359,26.06855359
kepn,2595-15275,Mary,2,977215.9016,97.72159016
kepn,2615-15280,Mary,2,100218.2719,10.02182719
kink,2540-15275,Mary,2,526467.6894,52.64676894
kink,2565-15265,Mary,2,462834.6564,46.28346564
maro,2540-15275,Mary,5,4064929.152,406.4929152
maro,2565-15265,Mary,6,1335196.528,133.5196528
maro,2570-15245,Mary,3,1472724.307,147.2724307
maro,2590-15240,Mary,2,932867.7369,93.28677369
maro,2605-15245,Mary,5,1431809.498,143.1809498
robu,2540-15275,Mary,30,5409262.877,540.9262877
robu,2565-15265,Mary,9,3937621.002,393.7621002
robu,2590-15240,Mary,2,567392.4505,56.73924505
robu,2595-15275,Mary,1,463965.8916,46.39658916
