﻿SoilNam,MetCode,SOWREG,FREQUENCY,SUM_Shape_Area,AREA_Ha
allo,2565-15265,Mary,1,1245158.622,124.5158622
aubu,2540-15275,Mary,77,27684882.44,2768.488244
aubu,2565-15265,Mary,68,20822849.98,2082.284998
aubu,2570-15245,Mary,11,7047920.341,704.7920341
aubu,2590-15240,Mary,21,8489181.495,848.9181495
aubu,2605-15245,Mary,12,3149678.43,314.967843
chil,2565-15265,Mary,36,13420030.6,1342.00306
chil,2595-15275,Mary,27,11032086.33,1103.208633
fair,2540-15275,Mary,20,1567250.414,156.7250414
farn,2565-15265,Mary,10,2089730.446,208.9730446
farn,2595-15275,Mary,13,6040712.991,604.0712991
kepn,2540-15275,Mary,21,4353592.939,435.3592939
kepn,2565-15265,Mary,37,14524767.43,1452.476743
maro,2540-15275,Mary,5,4064929.152,406.4929152
maro,2565-15265,Mary,6,1335196.528,133.5196528
maro,2570-15245,Mary,6,2044951.408,204.4951408
maro,2605-15245,Mary,5,1431809.498,143.1809498
robu,2540-15275,Mary,33,6841552.483,684.1552483
robu,2565-15265,Mary,9,3937621.002,393.7621002
