P2RClass,OLDP2RClass,OLDSoil,Soil,Pest,PestCode,OLDNutrient,NutrientCode,OLDMillMudCode,MillMudCode,TrafficCode,OLDFertCode,FertCode,TillageCode,FallowCode,PSplitCode,RSplitCode,PestManagement,BurnFlag
S1N2P1M1,AfAfAfAf,A,S1,A,P1,A,N2,Af,M1,ct,FertA,N2,TillA,grain,split,early,PestA,0
S1N3P2M1,AfBfBfAf,A,S1,B,P2,B,N3,Af,M1,ct,FertB,N3,TillA,grain,split,early,PestB,0
S1N4P3M1,AfBpBpAf,A,S1,Bp,P3,Bp,N4,Af,M1,ct,FertBp,N4,TillA,grain,split,early,PestC,0
S1N5P3M1,AfCfCfAf,A,S1,C,P3,C,N5,Af,M1,ct,FertC,N5,TillA,grain,split,early,PestC,0
S1N6P4M1,AfCpCpAf,A,S1,Cp,P4,Cp,N6,Af,M1,ct,FertCp,N6,TillA,grain,split,early,PestD,0
S1N8P4M1,AfDfDfAf,A,S1,D,P4,D,N8,Af,M1,ct,FertD,N8,TillA,grain,split,early,PestD,0
S2N2P1M1,ApAfAfAf,Ap,S2,A,P1,A,N2,Af,M1,ct,FertA,N2,TillAp,cover,split,early,PestA,0
S2N3P2M1,ApBfBfAf,Ap,S2,B,P2,B,N3,Af,M1,ct,FertB,N3,TillAp,cover,split,early,PestB,0
S2N4P3M1,ApBpBpAf,Ap,S2,Bp,P3,Bp,N4,Af,M1,ct,FertBp,N4,TillAp,cover,split,early,PestC,0
S2N5P3M1,ApCfCfAf,Ap,S2,C,P3,C,N5,Af,M1,ct,FertC,N5,TillAp,cover,split,early,PestC,0
S2N6P4M1,ApCpCpAf,Ap,S2,Cp,P4,Cp,N6,Af,M1,ct,FertCp,N6,TillAp,cover,split,early,PestD,0
S2N8P4M1,ApDfDfAf,Ap,S2,D,P4,D,N8,Af,M1,ct,FertD,N8,TillAp,cover,split,early,PestD,0
S3N2P1M1,BfAfAfAf,B,S3,A,P1,A,N2,Af,M1,ct,FertA,N2,TillB,cover,split,early,PestA,0
S3N3P2M1,BfBfBfAf,B,S3,B,P2,B,N3,Af,M1,ct,FertB,N3,TillB,cover,split,early,PestB,0
S3N4P3M1,BfBpBpAf,B,S3,Bp,P3,Bp,N4,Af,M1,ct,FertBp,N4,TillB,cover,split,early,PestC,0
S3N5P3M1,BfCfCfAf,B,S3,C,P3,C,N5,Af,M1,ct,FertC,N5,TillB,cover,split,early,PestC,0
S3N6P4M1,BfCpCpAf,B,S3,Cp,P4,Cp,N6,Af,M1,ct,FertCp,N6,TillB,cover,split,early,PestD,0
S3N8P4M1,BfDfDfAf,B,S3,D,P4,D,N8,Af,M1,ct,FertD,N8,TillB,cover,split,early,PestD,0
S4N2P1M1,BpAfAfAf,Bp,S4,A,P1,A,N2,Af,M1,ct,FertA,N2,TillBp,cover,split,early,PestA,0
S4N3P2M1,BpBfBfAf,Bp,S4,B,P2,B,N3,Af,M1,ct,FertB,N3,TillBp,cover,split,early,PestB,0
S4N4P3M1,BpBpBpAf,Bp,S4,Bp,P3,Bp,N4,Af,M1,ct,FertBp,N4,TillBp,cover,split,early,PestC,0
S4N5P3M1,BpCfCfAf,Bp,S4,C,P3,C,N5,Af,M1,ct,FertC,N5,TillBp,cover,split,early,PestC,0
S4N6P4M1,BpCpCpAf,Bp,S4,Cp,P4,Cp,N6,Af,M1,ct,FertCp,N6,TillBp,cover,split,early,PestD,0
S4N8P4M1,BpDfDfAf,Bp,S4,D,P4,D,N8,Af,M1,ct,FertD,N8,TillBp,cover,split,early,PestD,0
S5N2P1M1,CfAfAfAf,C,S5,A,P1,A,N2,Af,M1,ct,FertA,N2,TillC,weed,split,early,PestA,0
S5N3P2M1,CfBfBfAf,C,S5,B,P2,B,N3,Af,M1,ct,FertB,N3,TillC,weed,split,early,PestB,0
S5N4P3M1,CfBpBpAf,C,S5,Bp,P3,Bp,N4,Af,M1,ct,FertBp,N4,TillC,weed,split,early,PestC,0
S5N5P3M1,CfCfCfAf,C,S5,C,P3,C,N5,Af,M1,ct,FertC,N5,TillC,weed,split,early,PestC,0
S5N6P4M1,CfCpCpAf,C,S5,Cp,P4,Cp,N6,Af,M1,ct,FertCp,N6,TillC,weed,split,early,PestD,0
S5N8P4M1,CfDfDfAf,C,S5,D,P4,D,N8,Af,M1,ct,FertD,N8,TillC,weed,split,early,PestD,0
S6N2P1M1,CpAfAfAf,Cp,S6,A,P1,A,N2,Af,M1,cp,FertA,N2,TillCp,bare,split,early,PestA,0
S6N3P2M1,CpBfBfAf,Cp,S6,B,P2,B,N3,Af,M1,cp,FertB,N3,TillCp,bare,split,early,PestB,0
S6N4P3M1,CpBpBpAf,Cp,S6,Bp,P3,Bp,N4,Af,M1,cp,FertBp,N4,TillCp,bare,split,early,PestC,0
S6N5P3M1,CpCfCfAf,Cp,S6,C,P3,C,N5,Af,M1,cp,FertC,N5,TillCp,bare,split,early,PestC,0
S6N6P4M1,CpCpCpAf,Cp,S6,Cp,P4,Cp,N6,Af,M1,cp,FertCp,N6,TillCp,bare,split,early,PestD,0
S6N8P4M1,CpDfDfAf,Cp,S6,D,P4,D,N8,Af,M1,cp,FertD,N8,TillCp,bare,split,early,PestD,0
S7N2P1M1,DfAfAfAf,D,S7,A,P1,A,N2,Af,M1,cp,FertA,N2,TillD,bare,split,early,PestA,0
S7N3P2M1,DfBfBfAf,D,S7,B,P2,B,N3,Af,M1,cp,FertB,N3,TillD,bare,split,early,PestB,0
S7N4P3M1,DfBpBpAf,D,S7,Bp,P3,Bp,N4,Af,M1,cp,FertBp,N4,TillD,bare,split,early,PestC,0
S7N5P3M1,DfCfCfAf,D,S7,C,P3,C,N5,Af,M1,cp,FertC,N5,TillD,bare,split,early,PestC,0
S7N6P4M1,DfCpCpAf,D,S7,Cp,P4,Cp,N6,Af,M1,cp,FertCp,N6,TillD,bare,split,early,PestD,0
S7N8P4M1,DfDfDfAf,D,S7,D,P4,D,N8,Af,M1,cp,FertD,N8,TillD,bare,split,early,PestD,0
S1N2P1M2,AfAfAfBf,A,S1,A,P1,A,N2,Bf,M2,ct,FertA,N2,TillA,grain,split,early,PestA,0
S1N3P2M2,AfBfBfBf,A,S1,B,P2,B,N3,Bf,M2,ct,FertB,N3,TillA,grain,split,early,PestB,0
S1N4P3M2,AfBpBpBf,A,S1,Bp,P3,Bp,N4,Bf,M2,ct,FertBp,N4,TillA,grain,split,early,PestC,0
S1N5P3M2,AfCfCfBf,A,S1,C,P3,C,N5,Bf,M2,ct,FertC,N5,TillA,grain,split,early,PestC,0
S1N6P4M2,AfCpCpBf,A,S1,Cp,P4,Cp,N6,Bf,M2,ct,FertCp,N6,TillA,grain,split,early,PestD,0
S1N8P4M2,AfDfDfBf,A,S1,D,P4,D,N8,Bf,M2,ct,FertD,N8,TillA,grain,split,early,PestD,0
S2N2P1M2,ApAfAfBf,Ap,S2,A,P1,A,N2,Bf,M2,ct,FertA,N2,TillAp,cover,split,early,PestA,0
S2N3P2M2,ApBfBfBf,Ap,S2,B,P2,B,N3,Bf,M2,ct,FertB,N3,TillAp,cover,split,early,PestB,0
S2N4P3M2,ApBpBpBf,Ap,S2,Bp,P3,Bp,N4,Bf,M2,ct,FertBp,N4,TillAp,cover,split,early,PestC,0
S2N5P3M2,ApCfCfBf,Ap,S2,C,P3,C,N5,Bf,M2,ct,FertC,N5,TillAp,cover,split,early,PestC,0
S2N6P4M2,ApCpCpBf,Ap,S2,Cp,P4,Cp,N6,Bf,M2,ct,FertCp,N6,TillAp,cover,split,early,PestD,0
S2N8P4M2,ApDfDfBf,Ap,S2,D,P4,D,N8,Bf,M2,ct,FertD,N8,TillAp,cover,split,early,PestD,0
S3N2P1M2,BfAfAfBf,B,S3,A,P1,A,N2,Bf,M2,ct,FertA,N2,TillB,cover,split,early,PestA,0
S3N3P2M2,BfBfBfBf,B,S3,B,P2,B,N3,Bf,M2,ct,FertB,N3,TillB,cover,split,early,PestB,0
S3N4P3M2,BfBpBpBf,B,S3,Bp,P3,Bp,N4,Bf,M2,ct,FertBp,N4,TillB,cover,split,early,PestC,0
S3N5P3M2,BfCfCfBf,B,S3,C,P3,C,N5,Bf,M2,ct,FertC,N5,TillB,cover,split,early,PestC,0
S3N6P4M2,BfCpCpBf,B,S3,Cp,P4,Cp,N6,Bf,M2,ct,FertCp,N6,TillB,cover,split,early,PestD,0
S3N8P4M2,BfDfDfBf,B,S3,D,P4,D,N8,Bf,M2,ct,FertD,N8,TillB,cover,split,early,PestD,0
S4N2P1M2,BpAfAfBf,Bp,S4,A,P1,A,N2,Bf,M2,ct,FertA,N2,TillBp,cover,split,early,PestA,0
S4N3P2M2,BpBfBfBf,Bp,S4,B,P2,B,N3,Bf,M2,ct,FertB,N3,TillBp,cover,split,early,PestB,0
S4N4P3M2,BpBpBpBf,Bp,S4,Bp,P3,Bp,N4,Bf,M2,ct,FertBp,N4,TillBp,cover,split,early,PestC,0
S4N5P3M2,BpCfCfBf,Bp,S4,C,P3,C,N5,Bf,M2,ct,FertC,N5,TillBp,cover,split,early,PestC,0
S4N6P4M2,BpCpCpBf,Bp,S4,Cp,P4,Cp,N6,Bf,M2,ct,FertCp,N6,TillBp,cover,split,early,PestD,0
S4N8P4M2,BpDfDfBf,Bp,S4,D,P4,D,N8,Bf,M2,ct,FertD,N8,TillBp,cover,split,early,PestD,0
S5N2P1M2,CfAfAfBf,C,S5,A,P1,A,N2,Bf,M2,ct,FertA,N2,TillC,weed,split,early,PestA,0
S5N3P2M2,CfBfBfBf,C,S5,B,P2,B,N3,Bf,M2,ct,FertB,N3,TillC,weed,split,early,PestB,0
S5N4P3M2,CfBpBpBf,C,S5,Bp,P3,Bp,N4,Bf,M2,ct,FertBp,N4,TillC,weed,split,early,PestC,0
S5N5P3M2,CfCfCfBf,C,S5,C,P3,C,N5,Bf,M2,ct,FertC,N5,TillC,weed,split,early,PestC,0
S5N6P4M2,CfCpCpBf,C,S5,Cp,P4,Cp,N6,Bf,M2,ct,FertCp,N6,TillC,weed,split,early,PestD,0
S5N8P4M2,CfDfDfBf,C,S5,D,P4,D,N8,Bf,M2,ct,FertD,N8,TillC,weed,split,early,PestD,0
S6N2P1M2,CpAfAfBf,Cp,S6,A,P1,A,N2,Bf,M2,cp,FertA,N2,TillCp,bare,split,early,PestA,0
S6N3P2M2,CpBfBfBf,Cp,S6,B,P2,B,N3,Bf,M2,cp,FertB,N3,TillCp,bare,split,early,PestB,0
S6N4P3M2,CpBpBpBf,Cp,S6,Bp,P3,Bp,N4,Bf,M2,cp,FertBp,N4,TillCp,bare,split,early,PestC,0
S6N5P3M2,CpCfCfBf,Cp,S6,C,P3,C,N5,Bf,M2,cp,FertC,N5,TillCp,bare,split,early,PestC,0
S6N6P4M2,CpCpCpBf,Cp,S6,Cp,P4,Cp,N6,Bf,M2,cp,FertCp,N6,TillCp,bare,split,early,PestD,0
S6N8P4M2,CpDfDfBf,Cp,S6,D,P4,D,N8,Bf,M2,cp,FertD,N8,TillCp,bare,split,early,PestD,0
S7N2P1M2,DfAfAfBf,D,S7,A,P1,A,N2,Bf,M2,cp,FertA,N2,TillD,bare,split,early,PestA,0
S7N3P2M2,DfBfBfBf,D,S7,B,P2,B,N3,Bf,M2,cp,FertB,N3,TillD,bare,split,early,PestB,0
S7N4P3M2,DfBpBpBf,D,S7,Bp,P3,Bp,N4,Bf,M2,cp,FertBp,N4,TillD,bare,split,early,PestC,0
S7N5P3M2,DfCfCfBf,D,S7,C,P3,C,N5,Bf,M2,cp,FertC,N5,TillD,bare,split,early,PestC,0
S7N6P4M2,DfCpCpBf,D,S7,Cp,P4,Cp,N6,Bf,M2,cp,FertCp,N6,TillD,bare,split,early,PestD,0
S7N8P4M2,DfDfDfBf,D,S7,D,P4,D,N8,Bf,M2,cp,FertD,N8,TillD,bare,split,early,PestD,0
S1N2P1M4,AfAfAfCf,A,S1,A,P1,A,N2,Cf,M4,ct,FertA,N2,TillA,grain,split,early,PestA,0
S1N3P2M4,AfBfBfCf,A,S1,B,P2,B,N3,Cf,M4,ct,FertB,N3,TillA,grain,split,early,PestB,0
S1N4P3M4,AfBpBpCf,A,S1,Bp,P3,Bp,N4,Cf,M4,ct,FertBp,N4,TillA,grain,split,early,PestC,0
S1N5P3M4,AfCfCfCf,A,S1,C,P3,C,N5,Cf,M4,ct,FertC,N5,TillA,grain,split,early,PestC,0
S1N6P4M4,AfCpCpCf,A,S1,Cp,P4,Cp,N6,Cf,M4,ct,FertCp,N6,TillA,grain,split,early,PestD,0
S1N8P4M4,AfDfDfCf,A,S1,D,P4,D,N8,Cf,M4,ct,FertD,N8,TillA,grain,split,early,PestD,0
S2N2P1M4,ApAfAfCf,Ap,S2,A,P1,A,N2,Cf,M4,ct,FertA,N2,TillAp,cover,split,early,PestA,0
S2N3P2M4,ApBfBfCf,Ap,S2,B,P2,B,N3,Cf,M4,ct,FertB,N3,TillAp,cover,split,early,PestB,0
S2N4P3M4,ApBpBpCf,Ap,S2,Bp,P3,Bp,N4,Cf,M4,ct,FertBp,N4,TillAp,cover,split,early,PestC,0
S2N5P3M4,ApCfCfCf,Ap,S2,C,P3,C,N5,Cf,M4,ct,FertC,N5,TillAp,cover,split,early,PestC,0
S2N6P4M4,ApCpCpCf,Ap,S2,Cp,P4,Cp,N6,Cf,M4,ct,FertCp,N6,TillAp,cover,split,early,PestD,0
S2N8P4M4,ApDfDfCf,Ap,S2,D,P4,D,N8,Cf,M4,ct,FertD,N8,TillAp,cover,split,early,PestD,0
S3N2P1M4,BfAfAfCf,B,S3,A,P1,A,N2,Cf,M4,ct,FertA,N2,TillB,cover,split,early,PestA,0
S3N3P2M4,BfBfBfCf,B,S3,B,P2,B,N3,Cf,M4,ct,FertB,N3,TillB,cover,split,early,PestB,0
S3N4P3M4,BfBpBpCf,B,S3,Bp,P3,Bp,N4,Cf,M4,ct,FertBp,N4,TillB,cover,split,early,PestC,0
S3N5P3M4,BfCfCfCf,B,S3,C,P3,C,N5,Cf,M4,ct,FertC,N5,TillB,cover,split,early,PestC,0
S3N6P4M4,BfCpCpCf,B,S3,Cp,P4,Cp,N6,Cf,M4,ct,FertCp,N6,TillB,cover,split,early,PestD,0
S3N8P4M4,BfDfDfCf,B,S3,D,P4,D,N8,Cf,M4,ct,FertD,N8,TillB,cover,split,early,PestD,0
S4N2P1M4,BpAfAfCf,Bp,S4,A,P1,A,N2,Cf,M4,ct,FertA,N2,TillBp,cover,split,early,PestA,0
S4N3P2M4,BpBfBfCf,Bp,S4,B,P2,B,N3,Cf,M4,ct,FertB,N3,TillBp,cover,split,early,PestB,0
S4N4P3M4,BpBpBpCf,Bp,S4,Bp,P3,Bp,N4,Cf,M4,ct,FertBp,N4,TillBp,cover,split,early,PestC,0
S4N5P3M4,BpCfCfCf,Bp,S4,C,P3,C,N5,Cf,M4,ct,FertC,N5,TillBp,cover,split,early,PestC,0
S4N6P4M4,BpCpCpCf,Bp,S4,Cp,P4,Cp,N6,Cf,M4,ct,FertCp,N6,TillBp,cover,split,early,PestD,0
S4N8P4M4,BpDfDfCf,Bp,S4,D,P4,D,N8,Cf,M4,ct,FertD,N8,TillBp,cover,split,early,PestD,0
S5N2P1M4,CfAfAfCf,C,S5,A,P1,A,N2,Cf,M4,ct,FertA,N2,TillC,weed,split,early,PestA,0
S5N3P2M4,CfBfBfCf,C,S5,B,P2,B,N3,Cf,M4,ct,FertB,N3,TillC,weed,split,early,PestB,0
S5N4P3M4,CfBpBpCf,C,S5,Bp,P3,Bp,N4,Cf,M4,ct,FertBp,N4,TillC,weed,split,early,PestC,0
S5N5P3M4,CfCfCfCf,C,S5,C,P3,C,N5,Cf,M4,ct,FertC,N5,TillC,weed,split,early,PestC,0
S5N6P4M4,CfCpCpCf,C,S5,Cp,P4,Cp,N6,Cf,M4,ct,FertCp,N6,TillC,weed,split,early,PestD,0
S5N8P4M4,CfDfDfCf,C,S5,D,P4,D,N8,Cf,M4,ct,FertD,N8,TillC,weed,split,early,PestD,0
S6N2P1M4,CpAfAfCf,Cp,S6,A,P1,A,N2,Cf,M4,cp,FertA,N2,TillCp,bare,split,early,PestA,0
S6N3P2M4,CpBfBfCf,Cp,S6,B,P2,B,N3,Cf,M4,cp,FertB,N3,TillCp,bare,split,early,PestB,0
S6N4P3M4,CpBpBpCf,Cp,S6,Bp,P3,Bp,N4,Cf,M4,cp,FertBp,N4,TillCp,bare,split,early,PestC,0
S6N5P3M4,CpCfCfCf,Cp,S6,C,P3,C,N5,Cf,M4,cp,FertC,N5,TillCp,bare,split,early,PestC,0
S6N6P4M4,CpCpCpCf,Cp,S6,Cp,P4,Cp,N6,Cf,M4,cp,FertCp,N6,TillCp,bare,split,early,PestD,0
S6N8P4M4,CpDfDfCf,Cp,S6,D,P4,D,N8,Cf,M4,cp,FertD,N8,TillCp,bare,split,early,PestD,0
S7N2P1M4,DfAfAfCf,D,S7,A,P1,A,N2,Cf,M4,cp,FertA,N2,TillD,bare,split,early,PestA,0
S7N3P2M4,DfBfBfCf,D,S7,B,P2,B,N3,Cf,M4,cp,FertB,N3,TillD,bare,split,early,PestB,0
S7N4P3M4,DfBpBpCf,D,S7,Bp,P3,Bp,N4,Cf,M4,cp,FertBp,N4,TillD,bare,split,early,PestC,0
S7N5P3M4,DfCfCfCf,D,S7,C,P3,C,N5,Cf,M4,cp,FertC,N5,TillD,bare,split,early,PestC,0
S7N6P4M4,DfCpCpCf,D,S7,Cp,P4,Cp,N6,Cf,M4,cp,FertCp,N6,TillD,bare,split,early,PestD,0
S7N8P4M4,DfDfDfCf,D,S7,D,P4,D,N8,Cf,M4,cp,FertD,N8,TillD,bare,split,early,PestD,0
S1N2P1M6,AfAfAfDf,A,S1,A,P1,A,N2,Df,M6,ct,FertA,N2,TillA,grain,split,early,PestA,0
S1N3P2M6,AfBfBfDf,A,S1,B,P2,B,N3,Df,M6,ct,FertB,N3,TillA,grain,split,early,PestB,0
S1N4P3M6,AfBpBpDf,A,S1,Bp,P3,Bp,N4,Df,M6,ct,FertBp,N4,TillA,grain,split,early,PestC,0
S1N5P3M6,AfCfCfDf,A,S1,C,P3,C,N5,Df,M6,ct,FertC,N5,TillA,grain,split,early,PestC,0
S1N6P4M6,AfCpCpDf,A,S1,Cp,P4,Cp,N6,Df,M6,ct,FertCp,N6,TillA,grain,split,early,PestD,0
S1N8P4M6,AfDfDfDf,A,S1,D,P4,D,N8,Df,M6,ct,FertD,N8,TillA,grain,split,early,PestD,0
S2N2P1M6,ApAfAfDf,Ap,S2,A,P1,A,N2,Df,M6,ct,FertA,N2,TillAp,cover,split,early,PestA,0
S2N3P2M6,ApBfBfDf,Ap,S2,B,P2,B,N3,Df,M6,ct,FertB,N3,TillAp,cover,split,early,PestB,0
S2N4P3M6,ApBpBpDf,Ap,S2,Bp,P3,Bp,N4,Df,M6,ct,FertBp,N4,TillAp,cover,split,early,PestC,0
S2N5P3M6,ApCfCfDf,Ap,S2,C,P3,C,N5,Df,M6,ct,FertC,N5,TillAp,cover,split,early,PestC,0
S2N6P4M6,ApCpCpDf,Ap,S2,Cp,P4,Cp,N6,Df,M6,ct,FertCp,N6,TillAp,cover,split,early,PestD,0
S2N8P4M6,ApDfDfDf,Ap,S2,D,P4,D,N8,Df,M6,ct,FertD,N8,TillAp,cover,split,early,PestD,0
S3N2P1M6,BfAfAfDf,B,S3,A,P1,A,N2,Df,M6,ct,FertA,N2,TillB,cover,split,early,PestA,0
S3N3P2M6,BfBfBfDf,B,S3,B,P2,B,N3,Df,M6,ct,FertB,N3,TillB,cover,split,early,PestB,0
S3N4P3M6,BfBpBpDf,B,S3,Bp,P3,Bp,N4,Df,M6,ct,FertBp,N4,TillB,cover,split,early,PestC,0
S3N5P3M6,BfCfCfDf,B,S3,C,P3,C,N5,Df,M6,ct,FertC,N5,TillB,cover,split,early,PestC,0
S3N6P4M6,BfCpCpDf,B,S3,Cp,P4,Cp,N6,Df,M6,ct,FertCp,N6,TillB,cover,split,early,PestD,0
S3N8P4M6,BfDfDfDf,B,S3,D,P4,D,N8,Df,M6,ct,FertD,N8,TillB,cover,split,early,PestD,0
S4N2P1M6,BpAfAfDf,Bp,S4,A,P1,A,N2,Df,M6,ct,FertA,N2,TillBp,cover,split,early,PestA,0
S4N3P2M6,BpBfBfDf,Bp,S4,B,P2,B,N3,Df,M6,ct,FertB,N3,TillBp,cover,split,early,PestB,0
S4N4P3M6,BpBpBpDf,Bp,S4,Bp,P3,Bp,N4,Df,M6,ct,FertBp,N4,TillBp,cover,split,early,PestC,0
S4N5P3M6,BpCfCfDf,Bp,S4,C,P3,C,N5,Df,M6,ct,FertC,N5,TillBp,cover,split,early,PestC,0
S4N6P4M6,BpCpCpDf,Bp,S4,Cp,P4,Cp,N6,Df,M6,ct,FertCp,N6,TillBp,cover,split,early,PestD,0
S4N8P4M6,BpDfDfDf,Bp,S4,D,P4,D,N8,Df,M6,ct,FertD,N8,TillBp,cover,split,early,PestD,0
S5N2P1M6,CfAfAfDf,C,S5,A,P1,A,N2,Df,M6,ct,FertA,N2,TillC,weed,split,early,PestA,0
S5N3P2M6,CfBfBfDf,C,S5,B,P2,B,N3,Df,M6,ct,FertB,N3,TillC,weed,split,early,PestB,0
S5N4P3M6,CfBpBpDf,C,S5,Bp,P3,Bp,N4,Df,M6,ct,FertBp,N4,TillC,weed,split,early,PestC,0
S5N5P3M6,CfCfCfDf,C,S5,C,P3,C,N5,Df,M6,ct,FertC,N5,TillC,weed,split,early,PestC,0
S5N6P4M6,CfCpCpDf,C,S5,Cp,P4,Cp,N6,Df,M6,ct,FertCp,N6,TillC,weed,split,early,PestD,0
S5N8P4M6,CfDfDfDf,C,S5,D,P4,D,N8,Df,M6,ct,FertD,N8,TillC,weed,split,early,PestD,0
S6N2P1M6,CpAfAfDf,Cp,S6,A,P1,A,N2,Df,M6,cp,FertA,N2,TillCp,bare,split,early,PestA,0
S6N3P2M6,CpBfBfDf,Cp,S6,B,P2,B,N3,Df,M6,cp,FertB,N3,TillCp,bare,split,early,PestB,0
S6N4P3M6,CpBpBpDf,Cp,S6,Bp,P3,Bp,N4,Df,M6,cp,FertBp,N4,TillCp,bare,split,early,PestC,0
S6N5P3M6,CpCfCfDf,Cp,S6,C,P3,C,N5,Df,M6,cp,FertC,N5,TillCp,bare,split,early,PestC,0
S6N6P4M6,CpCpCpDf,Cp,S6,Cp,P4,Cp,N6,Df,M6,cp,FertCp,N6,TillCp,bare,split,early,PestD,0
S6N8P4M6,CpDfDfDf,Cp,S6,D,P4,D,N8,Df,M6,cp,FertD,N8,TillCp,bare,split,early,PestD,0
S7N2P1M6,DfAfAfDf,D,S7,A,P1,A,N2,Df,M6,cp,FertA,N2,TillD,bare,split,early,PestA,0
S7N3P2M6,DfBfBfDf,D,S7,B,P2,B,N3,Df,M6,cp,FertB,N3,TillD,bare,split,early,PestB,0
S7N4P3M6,DfBpBpDf,D,S7,Bp,P3,Bp,N4,Df,M6,cp,FertBp,N4,TillD,bare,split,early,PestC,0
S7N5P3M6,DfCfCfDf,D,S7,C,P3,C,N5,Df,M6,cp,FertC,N5,TillD,bare,split,early,PestC,0
S7N6P4M6,DfCpCpDf,D,S7,Cp,P4,Cp,N6,Df,M6,cp,FertCp,N6,TillD,bare,split,early,PestD,0
S7N8P4M6,DfDfDfDf,D,S7,D,P4,D,N8,Df,M6,cp,FertD,N8,TillD,bare,split,early,PestD,0
S1N1P1M1,AfAfAfAf,A,S1,A,P1,NA,N1,Af,M1,ct,FertA,N1,TillA,grain,split,early,PestA,0
S2N1P1M1,ApAfAfAf,Ap,S2,A,P1,NA,N1,Af,M1,ct,FertA,N1,TillAp,cover,split,early,PestA,0
S3N1P1M1,BfAfAfAf,B,S3,A,P1,NA,N1,Af,M1,ct,FertA,N1,TillB,cover,split,early,PestA,0
S4N1P1M1,BpAfAfAf,Bp,S4,A,P1,NA,N1,Af,M1,ct,FertA,N1,TillBp,cover,split,early,PestA,0
S5N1P1M1,CfAfAfAf,C,S5,A,P1,NA,N1,Af,M1,ct,FertA,N1,TillC,weed,split,early,PestA,0
S6N1P1M1,CpAfAfAf,Cp,S6,A,P1,NA,N1,Af,M1,cp,FertA,N1,TillCp,bare,split,early,PestA,0
S7N1P1M1,DfAfAfAf,D,S7,A,P1,NA,N1,Af,M1,cp,FertA,N1,TillD,bare,split,early,PestA,0
S1N1P1M2,AfAfAfBf,A,S1,A,P1,NA,N1,Bf,M2,ct,FertA,N1,TillA,grain,split,early,PestA,0
S2N1P1M2,ApAfAfBf,Ap,S2,A,P1,NA,N1,Bf,M2,ct,FertA,N1,TillAp,cover,split,early,PestA,0
S3N1P1M2,BfAfAfBf,B,S3,A,P1,NA,N1,Bf,M2,ct,FertA,N1,TillB,cover,split,early,PestA,0
S4N1P1M2,BpAfAfBf,Bp,S4,A,P1,NA,N1,Bf,M2,ct,FertA,N1,TillBp,cover,split,early,PestA,0
S5N1P1M2,CfAfAfBf,C,S5,A,P1,NA,N1,Bf,M2,ct,FertA,N1,TillC,weed,split,early,PestA,0
S6N1P1M2,CpAfAfBf,Cp,S6,A,P1,NA,N1,Bf,M2,cp,FertA,N1,TillCp,bare,split,early,PestA,0
S7N1P1M2,DfAfAfBf,D,S7,A,P1,NA,N1,Bf,M2,cp,FertA,N1,TillD,bare,split,early,PestA,0
S1N1P1M4,AfAfAfCf,A,S1,A,P1,NA,N1,Cf,M4,ct,FertA,N1,TillA,grain,split,early,PestA,0
S2N1P1M4,ApAfAfCf,Ap,S2,A,P1,NA,N1,Cf,M4,ct,FertA,N1,TillAp,cover,split,early,PestA,0
S3N1P1M4,BfAfAfCf,B,S3,A,P1,NA,N1,Cf,M4,ct,FertA,N1,TillB,cover,split,early,PestA,0
S4N1P1M4,BpAfAfCf,Bp,S4,A,P1,NA,N1,Cf,M4,ct,FertA,N1,TillBp,cover,split,early,PestA,0
S5N1P1M4,CfAfAfCf,C,S5,A,P1,NA,N1,Cf,M4,ct,FertA,N1,TillC,weed,split,early,PestA,0
S6N1P1M4,CpAfAfCf,Cp,S6,A,P1,NA,N1,Cf,M4,cp,FertA,N1,TillCp,bare,split,early,PestA,0
S7N1P1M4,DfAfAfCf,D,S7,A,P1,NA,N1,Cf,M4,cp,FertA,N1,TillD,bare,split,early,PestA,0
S1N1P1M6,AfAfAfDf,A,S1,A,P1,NA,N1,Df,M6,ct,FertA,N1,TillA,grain,split,early,PestA,0
S2N1P1M6,ApAfAfDf,Ap,S2,A,P1,NA,N1,Df,M6,ct,FertA,N1,TillAp,cover,split,early,PestA,0
S3N1P1M6,BfAfAfDf,B,S3,A,P1,NA,N1,Df,M6,ct,FertA,N1,TillB,cover,split,early,PestA,0
S4N1P1M6,BpAfAfDf,Bp,S4,A,P1,NA,N1,Df,M6,ct,FertA,N1,TillBp,cover,split,early,PestA,0
S5N1P1M6,CfAfAfDf,C,S5,A,P1,NA,N1,Df,M6,ct,FertA,N1,TillC,weed,split,early,PestA,0
S6N1P1M6,CpAfAfDf,Cp,S6,A,P1,NA,N1,Df,M6,cp,FertA,N1,TillCp,bare,split,early,PestA,0
S7N1P1M6,DfAfAfDf,D,S7,A,P1,NA,N1,Df,M6,cp,FertA,N1,TillD,bare,split,early,PestA,0
S1N7P1M1,AfAfAfAf,A,S1,A,P1,NA,N7,Af,M1,ct,FertA,N7,TillA,grain,split,early,PestA,0
S2N7P1M1,ApAfAfAf,Ap,S2,A,P1,NA,N7,Af,M1,ct,FertA,N7,TillAp,cover,split,early,PestA,0
S3N7P1M1,BfAfAfAf,B,S3,A,P1,NA,N7,Af,M1,ct,FertA,N7,TillB,cover,split,early,PestA,0
S4N7P1M1,BpAfAfAf,Bp,S4,A,P1,NA,N7,Af,M1,ct,FertA,N7,TillBp,cover,split,early,PestA,0
S5N7P1M1,CfAfAfAf,C,S5,A,P1,NA,N7,Af,M1,ct,FertA,N7,TillC,weed,split,early,PestA,0
S6N7P1M1,CpAfAfAf,Cp,S6,A,P1,NA,N7,Af,M1,cp,FertA,N7,TillCp,bare,split,early,PestA,0
S7N7P1M1,DfAfAfAf,D,S7,A,P1,NA,N7,Af,M1,cp,FertA,N7,TillD,bare,split,early,PestA,0
S1N7P1M2,AfAfAfBf,A,S1,A,P1,NA,N7,Bf,M2,ct,FertA,N7,TillA,grain,split,early,PestA,0
S2N7P1M2,ApAfAfBf,Ap,S2,A,P1,NA,N7,Bf,M2,ct,FertA,N7,TillAp,cover,split,early,PestA,0
S3N7P1M2,BfAfAfBf,B,S3,A,P1,NA,N7,Bf,M2,ct,FertA,N7,TillB,cover,split,early,PestA,0
S4N7P1M2,BpAfAfBf,Bp,S4,A,P1,NA,N7,Bf,M2,ct,FertA,N7,TillBp,cover,split,early,PestA,0
S5N7P1M2,CfAfAfBf,C,S5,A,P1,NA,N7,Bf,M2,ct,FertA,N7,TillC,weed,split,early,PestA,0
S6N7P1M2,CpAfAfBf,Cp,S6,A,P1,NA,N7,Bf,M2,cp,FertA,N7,TillCp,bare,split,early,PestA,0
S7N7P1M2,DfAfAfBf,D,S7,A,P1,NA,N7,Bf,M2,cp,FertA,N7,TillD,bare,split,early,PestA,0
S1N7P1M4,AfAfAfCf,A,S1,A,P1,NA,N7,Cf,M4,ct,FertA,N7,TillA,grain,split,early,PestA,0
S2N7P1M4,ApAfAfCf,Ap,S2,A,P1,NA,N7,Cf,M4,ct,FertA,N7,TillAp,cover,split,early,PestA,0
S3N7P1M4,BfAfAfCf,B,S3,A,P1,NA,N7,Cf,M4,ct,FertA,N7,TillB,cover,split,early,PestA,0
S4N7P1M4,BpAfAfCf,Bp,S4,A,P1,NA,N7,Cf,M4,ct,FertA,N7,TillBp,cover,split,early,PestA,0
S5N7P1M4,CfAfAfCf,C,S5,A,P1,NA,N7,Cf,M4,ct,FertA,N7,TillC,weed,split,early,PestA,0
S6N7P1M4,CpAfAfCf,Cp,S6,A,P1,NA,N7,Cf,M4,cp,FertA,N7,TillCp,bare,split,early,PestA,0
S7N7P1M4,DfAfAfCf,D,S7,A,P1,NA,N7,Cf,M4,cp,FertA,N7,TillD,bare,split,early,PestA,0
S1N7P1M6,AfAfAfDf,A,S1,A,P1,NA,N7,Df,M6,ct,FertA,N7,TillA,grain,split,early,PestA,0
S2N7P1M6,ApAfAfDf,Ap,S2,A,P1,NA,N7,Df,M6,ct,FertA,N7,TillAp,cover,split,early,PestA,0
S3N7P1M6,BfAfAfDf,B,S3,A,P1,NA,N7,Df,M6,ct,FertA,N7,TillB,cover,split,early,PestA,0
S4N7P1M6,BpAfAfDf,Bp,S4,A,P1,NA,N7,Df,M6,ct,FertA,N7,TillBp,cover,split,early,PestA,0
S5N7P1M6,CfAfAfDf,C,S5,A,P1,NA,N7,Df,M6,ct,FertA,N7,TillC,weed,split,early,PestA,0
S6N7P1M6,CpAfAfDf,Cp,S6,A,P1,NA,N7,Df,M6,cp,FertA,N7,TillCp,bare,split,early,PestA,0
S7N7P1M6,DfAfAfDf,D,S7,A,P1,NA,N7,Df,M6,cp,FertA,N7,TillD,bare,split,early,PestA,0
S1N2P1M3,AfAfAfCf,A,S1,A,P1,A,N2,NA,M3,ct,FertA,N2,TillA,grain,split,early,PestA,0
S1N3P2M3,AfBfBfCf,A,S1,B,P2,B,N3,NA,M3,ct,FertB,N3,TillA,grain,split,early,PestB,0
S1N4P3M3,AfBpBpCf,A,S1,Bp,P3,Bp,N4,NA,M3,ct,FertBp,N4,TillA,grain,split,early,PestC,0
S1N5P3M3,AfCfCfCf,A,S1,C,P3,C,N5,NA,M3,ct,FertC,N5,TillA,grain,split,early,PestC,0
S1N6P4M3,AfCpCpCf,A,S1,Cp,P4,Cp,N6,NA,M3,ct,FertCp,N6,TillA,grain,split,early,PestD,0
S1N8P4M3,AfDfDfCf,A,S1,D,P4,D,N8,NA,M3,ct,FertD,N8,TillA,grain,split,early,PestD,0
S2N2P1M3,ApAfAfCf,Ap,S2,A,P1,A,N2,NA,M3,ct,FertA,N2,TillAp,cover,split,early,PestA,0
S2N3P2M3,ApBfBfCf,Ap,S2,B,P2,B,N3,NA,M3,ct,FertB,N3,TillAp,cover,split,early,PestB,0
S2N4P3M3,ApBpBpCf,Ap,S2,Bp,P3,Bp,N4,NA,M3,ct,FertBp,N4,TillAp,cover,split,early,PestC,0
S2N5P3M3,ApCfCfCf,Ap,S2,C,P3,C,N5,NA,M3,ct,FertC,N5,TillAp,cover,split,early,PestC,0
S2N6P4M3,ApCpCpCf,Ap,S2,Cp,P4,Cp,N6,NA,M3,ct,FertCp,N6,TillAp,cover,split,early,PestD,0
S2N8P4M3,ApDfDfCf,Ap,S2,D,P4,D,N8,NA,M3,ct,FertD,N8,TillAp,cover,split,early,PestD,0
S3N2P1M3,BfAfAfCf,B,S3,A,P1,A,N2,NA,M3,ct,FertA,N2,TillB,cover,split,early,PestA,0
S3N3P2M3,BfBfBfCf,B,S3,B,P2,B,N3,NA,M3,ct,FertB,N3,TillB,cover,split,early,PestB,0
S3N4P3M3,BfBpBpCf,B,S3,Bp,P3,Bp,N4,NA,M3,ct,FertBp,N4,TillB,cover,split,early,PestC,0
S3N5P3M3,BfCfCfCf,B,S3,C,P3,C,N5,NA,M3,ct,FertC,N5,TillB,cover,split,early,PestC,0
S3N6P4M3,BfCpCpCf,B,S3,Cp,P4,Cp,N6,NA,M3,ct,FertCp,N6,TillB,cover,split,early,PestD,0
S3N8P4M3,BfDfDfCf,B,S3,D,P4,D,N8,NA,M3,ct,FertD,N8,TillB,cover,split,early,PestD,0
S4N2P1M3,BpAfAfCf,Bp,S4,A,P1,A,N2,NA,M3,ct,FertA,N2,TillBp,cover,split,early,PestA,0
S4N3P2M3,BpBfBfCf,Bp,S4,B,P2,B,N3,NA,M3,ct,FertB,N3,TillBp,cover,split,early,PestB,0
S4N4P3M3,BpBpBpCf,Bp,S4,Bp,P3,Bp,N4,NA,M3,ct,FertBp,N4,TillBp,cover,split,early,PestC,0
S4N5P3M3,BpCfCfCf,Bp,S4,C,P3,C,N5,NA,M3,ct,FertC,N5,TillBp,cover,split,early,PestC,0
S4N6P4M3,BpCpCpCf,Bp,S4,Cp,P4,Cp,N6,NA,M3,ct,FertCp,N6,TillBp,cover,split,early,PestD,0
S4N8P4M3,BpDfDfCf,Bp,S4,D,P4,D,N8,NA,M3,ct,FertD,N8,TillBp,cover,split,early,PestD,0
S5N2P1M3,CfAfAfCf,C,S5,A,P1,A,N2,NA,M3,ct,FertA,N2,TillC,weed,split,early,PestA,0
S5N3P2M3,CfBfBfCf,C,S5,B,P2,B,N3,NA,M3,ct,FertB,N3,TillC,weed,split,early,PestB,0
S5N4P3M3,CfBpBpCf,C,S5,Bp,P3,Bp,N4,NA,M3,ct,FertBp,N4,TillC,weed,split,early,PestC,0
S5N5P3M3,CfCfCfCf,C,S5,C,P3,C,N5,NA,M3,ct,FertC,N5,TillC,weed,split,early,PestC,0
S5N6P4M3,CfCpCpCf,C,S5,Cp,P4,Cp,N6,NA,M3,ct,FertCp,N6,TillC,weed,split,early,PestD,0
S5N8P4M3,CfDfDfCf,C,S5,D,P4,D,N8,NA,M3,ct,FertD,N8,TillC,weed,split,early,PestD,0
S6N2P1M3,CpAfAfCf,Cp,S6,A,P1,A,N2,NA,M3,cp,FertA,N2,TillCp,bare,split,early,PestA,0
S6N3P2M3,CpBfBfCf,Cp,S6,B,P2,B,N3,NA,M3,cp,FertB,N3,TillCp,bare,split,early,PestB,0
S6N4P3M3,CpBpBpCf,Cp,S6,Bp,P3,Bp,N4,NA,M3,cp,FertBp,N4,TillCp,bare,split,early,PestC,0
S6N5P3M3,CpCfCfCf,Cp,S6,C,P3,C,N5,NA,M3,cp,FertC,N5,TillCp,bare,split,early,PestC,0
S6N6P4M3,CpCpCpCf,Cp,S6,Cp,P4,Cp,N6,NA,M3,cp,FertCp,N6,TillCp,bare,split,early,PestD,0
S6N8P4M3,CpDfDfCf,Cp,S6,D,P4,D,N8,NA,M3,cp,FertD,N8,TillCp,bare,split,early,PestD,0
S7N2P1M3,DfAfAfCf,D,S7,A,P1,A,N2,NA,M3,cp,FertA,N2,TillD,bare,split,early,PestA,0
S7N3P2M3,DfBfBfCf,D,S7,B,P2,B,N3,NA,M3,cp,FertB,N3,TillD,bare,split,early,PestB,0
S7N4P3M3,DfBpBpCf,D,S7,Bp,P3,Bp,N4,NA,M3,cp,FertBp,N4,TillD,bare,split,early,PestC,0
S7N5P3M3,DfCfCfCf,D,S7,C,P3,C,N5,NA,M3,cp,FertC,N5,TillD,bare,split,early,PestC,0
S7N6P4M3,DfCpCpCf,D,S7,Cp,P4,Cp,N6,NA,M3,cp,FertCp,N6,TillD,bare,split,early,PestD,0
S7N8P4M3,DfDfDfCf,D,S7,D,P4,D,N8,NA,M3,cp,FertD,N8,TillD,bare,split,early,PestD,0
S1N1P1M3,AfAfAfCf,A,S1,A,P1,NA,N1,NA,M3,ct,FertA,N1,TillA,grain,split,early,PestA,0
S2N1P1M3,ApAfAfCf,Ap,S2,A,P1,NA,N1,NA,M3,ct,FertA,N1,TillAp,cover,split,early,PestA,0
S3N1P1M3,BfAfAfCf,B,S3,A,P1,NA,N1,NA,M3,ct,FertA,N1,TillB,cover,split,early,PestA,0
S4N1P1M3,BpAfAfCf,Bp,S4,A,P1,NA,N1,NA,M3,ct,FertA,N1,TillBp,cover,split,early,PestA,0
S5N1P1M3,CfAfAfCf,C,S5,A,P1,NA,N1,NA,M3,ct,FertA,N1,TillC,weed,split,early,PestA,0
S6N1P1M3,CpAfAfCf,Cp,S6,A,P1,NA,N1,NA,M3,cp,FertA,N1,TillCp,bare,split,early,PestA,0
S7N1P1M3,DfAfAfCf,D,S7,A,P1,NA,N1,NA,M3,cp,FertA,N1,TillD,bare,split,early,PestA,0
S1N7P1M3,AfAfAfCf,A,S1,A,P1,NA,N7,NA,M3,ct,FertA,N7,TillA,grain,split,early,PestA,0
S2N7P1M3,ApAfAfCf,Ap,S2,A,P1,NA,N7,NA,M3,ct,FertA,N7,TillAp,cover,split,early,PestA,0
S3N7P1M3,BfAfAfCf,B,S3,A,P1,NA,N7,NA,M3,ct,FertA,N7,TillB,cover,split,early,PestA,0
S4N7P1M3,BpAfAfCf,Bp,S4,A,P1,NA,N7,NA,M3,ct,FertA,N7,TillBp,cover,split,early,PestA,0
S5N7P1M3,CfAfAfCf,C,S5,A,P1,NA,N7,NA,M3,ct,FertA,N7,TillC,weed,split,early,PestA,0
S6N7P1M3,CpAfAfCf,Cp,S6,A,P1,NA,N7,NA,M3,cp,FertA,N7,TillCp,bare,split,early,PestA,0
S7N7P1M3,DfAfAfCf,D,S7,A,P1,NA,N7,NA,M3,cp,FertA,N7,TillD,bare,split,early,PestA,0
S1N2P1M5,AfAfAfAf,A,S1,A,P1,A,N2,NA,M5,ct,FertA,N2,TillA,grain,split,early,PestA,0
S1N3P2M5,AfBfBfAf,A,S1,B,P2,B,N3,NA,M5,ct,FertB,N3,TillA,grain,split,early,PestB,0
S1N4P3M5,AfBpBpAf,A,S1,Bp,P3,Bp,N4,NA,M5,ct,FertBp,N4,TillA,grain,split,early,PestC,0
S1N5P3M5,AfCfCfAf,A,S1,C,P3,C,N5,NA,M5,ct,FertC,N5,TillA,grain,split,early,PestC,0
S1N6P4M5,AfCpCpAf,A,S1,Cp,P4,Cp,N6,NA,M5,ct,FertCp,N6,TillA,grain,split,early,PestD,0
S1N8P4M5,AfDfDfAf,A,S1,D,P4,D,N8,NA,M5,ct,FertD,N8,TillA,grain,split,early,PestD,0
S2N2P1M5,ApAfAfAf,Ap,S2,A,P1,A,N2,NA,M5,ct,FertA,N2,TillAp,cover,split,early,PestA,0
S2N3P2M5,ApBfBfAf,Ap,S2,B,P2,B,N3,NA,M5,ct,FertB,N3,TillAp,cover,split,early,PestB,0
S2N4P3M5,ApBpBpAf,Ap,S2,Bp,P3,Bp,N4,NA,M5,ct,FertBp,N4,TillAp,cover,split,early,PestC,0
S2N5P3M5,ApCfCfAf,Ap,S2,C,P3,C,N5,NA,M5,ct,FertC,N5,TillAp,cover,split,early,PestC,0
S2N6P4M5,ApCpCpAf,Ap,S2,Cp,P4,Cp,N6,NA,M5,ct,FertCp,N6,TillAp,cover,split,early,PestD,0
S2N8P4M5,ApDfDfAf,Ap,S2,D,P4,D,N8,NA,M5,ct,FertD,N8,TillAp,cover,split,early,PestD,0
S3N2P1M5,BfAfAfAf,B,S3,A,P1,A,N2,NA,M5,ct,FertA,N2,TillB,cover,split,early,PestA,0
S3N3P2M5,BfBfBfAf,B,S3,B,P2,B,N3,NA,M5,ct,FertB,N3,TillB,cover,split,early,PestB,0
S3N4P3M5,BfBpBpAf,B,S3,Bp,P3,Bp,N4,NA,M5,ct,FertBp,N4,TillB,cover,split,early,PestC,0
S3N5P3M5,BfCfCfAf,B,S3,C,P3,C,N5,NA,M5,ct,FertC,N5,TillB,cover,split,early,PestC,0
S3N6P4M5,BfCpCpAf,B,S3,Cp,P4,Cp,N6,NA,M5,ct,FertCp,N6,TillB,cover,split,early,PestD,0
S3N8P4M5,BfDfDfAf,B,S3,D,P4,D,N8,NA,M5,ct,FertD,N8,TillB,cover,split,early,PestD,0
S4N2P1M5,BpAfAfAf,Bp,S4,A,P1,A,N2,NA,M5,ct,FertA,N2,TillBp,cover,split,early,PestA,0
S4N3P2M5,BpBfBfAf,Bp,S4,B,P2,B,N3,NA,M5,ct,FertB,N3,TillBp,cover,split,early,PestB,0
S4N4P3M5,BpBpBpAf,Bp,S4,Bp,P3,Bp,N4,NA,M5,ct,FertBp,N4,TillBp,cover,split,early,PestC,0
S4N5P3M5,BpCfCfAf,Bp,S4,C,P3,C,N5,NA,M5,ct,FertC,N5,TillBp,cover,split,early,PestC,0
S4N6P4M5,BpCpCpAf,Bp,S4,Cp,P4,Cp,N6,NA,M5,ct,FertCp,N6,TillBp,cover,split,early,PestD,0
S4N8P4M5,BpDfDfAf,Bp,S4,D,P4,D,N8,NA,M5,ct,FertD,N8,TillBp,cover,split,early,PestD,0
S5N2P1M5,CfAfAfAf,C,S5,A,P1,A,N2,NA,M5,ct,FertA,N2,TillC,weed,split,early,PestA,0
S5N3P2M5,CfBfBfAf,C,S5,B,P2,B,N3,NA,M5,ct,FertB,N3,TillC,weed,split,early,PestB,0
S5N4P3M5,CfBpBpAf,C,S5,Bp,P3,Bp,N4,NA,M5,ct,FertBp,N4,TillC,weed,split,early,PestC,0
S5N5P3M5,CfCfCfAf,C,S5,C,P3,C,N5,NA,M5,ct,FertC,N5,TillC,weed,split,early,PestC,0
S5N6P4M5,CfCpCpAf,C,S5,Cp,P4,Cp,N6,NA,M5,ct,FertCp,N6,TillC,weed,split,early,PestD,0
S5N8P4M5,CfDfDfAf,C,S5,D,P4,D,N8,NA,M5,ct,FertD,N8,TillC,weed,split,early,PestD,0
S6N2P1M5,CpAfAfAf,Cp,S6,A,P1,A,N2,NA,M5,cp,FertA,N2,TillCp,bare,split,early,PestA,0
S6N3P2M5,CpBfBfAf,Cp,S6,B,P2,B,N3,NA,M5,cp,FertB,N3,TillCp,bare,split,early,PestB,0
S6N4P3M5,CpBpBpAf,Cp,S6,Bp,P3,Bp,N4,NA,M5,cp,FertBp,N4,TillCp,bare,split,early,PestC,0
S6N5P3M5,CpCfCfAf,Cp,S6,C,P3,C,N5,NA,M5,cp,FertC,N5,TillCp,bare,split,early,PestC,0
S6N6P4M5,CpCpCpAf,Cp,S6,Cp,P4,Cp,N6,NA,M5,cp,FertCp,N6,TillCp,bare,split,early,PestD,0
S6N8P4M5,CpDfDfAf,Cp,S6,D,P4,D,N8,NA,M5,cp,FertD,N8,TillCp,bare,split,early,PestD,0
S7N2P1M5,DfAfAfAf,D,S7,A,P1,A,N2,NA,M5,cp,FertA,N2,TillD,bare,split,early,PestA,0
S7N3P2M5,DfBfBfAf,D,S7,B,P2,B,N3,NA,M5,cp,FertB,N3,TillD,bare,split,early,PestB,0
S7N4P3M5,DfBpBpAf,D,S7,Bp,P3,Bp,N4,NA,M5,cp,FertBp,N4,TillD,bare,split,early,PestC,0
S7N5P3M5,DfCfCfAf,D,S7,C,P3,C,N5,NA,M5,cp,FertC,N5,TillD,bare,split,early,PestC,0
S7N6P4M5,DfCpCpAf,D,S7,Cp,P4,Cp,N6,NA,M5,cp,FertCp,N6,TillD,bare,split,early,PestD,0
S7N8P4M5,DfDfDfAf,D,S7,D,P4,D,N8,NA,M5,cp,FertD,N8,TillD,bare,split,early,PestD,0
S1N1P1M5,AfAfAfAf,A,S1,A,P1,NA,N1,NA,M5,ct,FertA,N1,TillA,grain,split,early,PestA,0
S2N1P1M5,ApAfAfAf,Ap,S2,A,P1,NA,N1,NA,M5,ct,FertA,N1,TillAp,cover,split,early,PestA,0
S3N1P1M5,BfAfAfAf,B,S3,A,P1,NA,N1,NA,M5,ct,FertA,N1,TillB,cover,split,early,PestA,0
S4N1P1M5,BpAfAfAf,Bp,S4,A,P1,NA,N1,NA,M5,ct,FertA,N1,TillBp,cover,split,early,PestA,0
S5N1P1M5,CfAfAfAf,C,S5,A,P1,NA,N1,NA,M5,ct,FertA,N1,TillC,weed,split,early,PestA,0
S6N1P1M5,CpAfAfAf,Cp,S6,A,P1,NA,N1,NA,M5,cp,FertA,N1,TillCp,bare,split,early,PestA,0
S7N1P1M5,DfAfAfAf,D,S7,A,P1,NA,N1,NA,M5,cp,FertA,N1,TillD,bare,split,early,PestA,0
S1N7P1M5,AfAfAfAf,A,S1,A,P1,NA,N7,NA,M5,ct,FertA,N7,TillA,grain,split,early,PestA,0
S2N7P1M5,ApAfAfAf,Ap,S2,A,P1,NA,N7,NA,M5,ct,FertA,N7,TillAp,cover,split,early,PestA,0
S3N7P1M5,BfAfAfAf,B,S3,A,P1,NA,N7,NA,M5,ct,FertA,N7,TillB,cover,split,early,PestA,0
S4N7P1M5,BpAfAfAf,Bp,S4,A,P1,NA,N7,NA,M5,ct,FertA,N7,TillBp,cover,split,early,PestA,0
S5N7P1M5,CfAfAfAf,C,S5,A,P1,NA,N7,NA,M5,ct,FertA,N7,TillC,weed,split,early,PestA,0
S6N7P1M5,CpAfAfAf,Cp,S6,A,P1,NA,N7,NA,M5,cp,FertA,N7,TillCp,bare,split,early,PestA,0
S7N7P1M5,DfAfAfAf,D,S7,A,P1,NA,N7,NA,M5,cp,FertA,N7,TillD,bare,split,early,PestA,0
