pesticide,pestmgmt,ratoon_no,sugarDAS,tillageCode,fallow_flag,DAS,sugarStatus,pest_Rate,pest_BandingPercent,ApplicationPosition
Diuron_1,pestc,0,14,,,,,0.5,100,BelowCanopyAboveMulch
Diuron_1,pestc,0,160,,,,,0.5,100,BelowCanopyAboveMulch
Diuron_1,pestc,1,21,,,,,0.5,100,BelowCanopyAboveMulch
Diuron_1,pestc,1,55,,,,,0.5,100,BelowCanopyAboveMulch
Diuron_1,pestc,2,14,,,,,0.5,100,BelowCanopyAboveMulch
Diuron_1,pestc,2,55,,,,,0.5,100,BelowCanopyAboveMulch
Diuron_1,pestc,3,14,,,,,0.5,100,BelowCanopyAboveMulch
Diuron_1,pestc,3,55,,,,,0.5,100,BelowCanopyAboveMulch
Diuron_1,pestc,4,14,,,,,0.5,100,BelowCanopyAboveMulch
Diuron_1,pestd,0,21,,,,,0.5,100,BelowCanopyAboveMulch
Diuron_1,pestd,0,90,,,,,0.5,100,BelowCanopyAboveMulch
Diuron_1,pestd,0,160,,,,,0.5,100,BelowCanopyAboveMulch
Diuron_1,pestd,1,21,,,,,0.5,100,BelowCanopyAboveMulch
Diuron_1,pestd,1,90,,,,,0.5,100,BelowCanopyAboveMulch
Diuron_1,pestd,2,14,,,,,0.5,100,BelowCanopyAboveMulch
Diuron_1,pestd,2,90,,,,,0.5,100,BelowCanopyAboveMulch
Diuron_1,pestd,3,14,,,,,0.5,100,BelowCanopyAboveMulch
Diuron_1,pestd,3,55,,,,,0.5,100,BelowCanopyAboveMulch
Diuron_1,pestd,3,90,,,,,0.5,100,BelowCanopyAboveMulch
Diuron_1,pestd,4,14,,,,,0.5,100,BelowCanopyAboveMulch
Diuron_1,pestd,4,55,,,,,0.5,100,BelowCanopyAboveMulch
Diuron_1,pestd,4,90,,,,,0.5,100,BelowCanopyAboveMulch
Atrazine_1,pestb,0,40,,,,,1,50,BelowCanopyAboveMulch
Atrazine_1,pestb,2,10,,,,,1.5,50,BelowCanopyAboveMulch
Atrazine_1,pestb,3,10,,,,,1.5,50,BelowCanopyAboveMulch
Atrazine_1,pestb,4,10,,,,,3,50,BelowCanopyAboveMulch
Atrazine_1,pestc,0,14,,,,,0.5,100,BelowCanopyAboveMulch
Atrazine_1,pestc,0,160,,,,,2,100,BelowCanopyAboveMulch
Atrazine_1,pestc,1,21,,,,,0.5,100,BelowCanopyAboveMulch
Atrazine_1,pestc,1,55,,,,,2,100,BelowCanopyAboveMulch
Atrazine_1,pestc,2,14,,,,,0.5,100,BelowCanopyAboveMulch
Atrazine_1,pestc,2,55,,,,,2,100,BelowCanopyAboveMulch
Atrazine_1,pestc,3,14,,,,,0.5,100,BelowCanopyAboveMulch
Atrazine_1,pestc,3,55,,,,,2,100,BelowCanopyAboveMulch
Atrazine_1,pestc,4,14,,,,,0.5,100,BelowCanopyAboveMulch
Atrazine_1,pestc,4,55,,,,,2,100,BelowCanopyAboveMulch
Metribuzin_1,pestb,0,14,,,,,0.2,50,BelowCanopyAboveMulch
Metribuzin_1,pestc,3,55,,,,,0.4,100,BelowCanopyAboveMulch
Metribuzin_1,pestc,4,55,,,,,0.4,100,BelowCanopyAboveMulch
Metribuzin_1,pestd,1,55,,,,,0.4,100,BelowCanopyAboveMulch
Metribuzin_1,pestd,2,55,,,,,0.4,100,BelowCanopyAboveMulch
Pendimethalin_1,pestb,0,40,,,,,3,50,BelowCanopyAboveMulch
Pendimethalin_1,pestb,2,10,,,,,3,50,BelowCanopyAboveMulch
Pendimethalin_1,pestb,3,10,,,,,3,50,BelowCanopyAboveMulch
Pendimethalin_1,pestb,4,10,,,,,3,50,BelowCanopyAboveMulch
Smetolachlor_1,pestc,0,90,,,,,1.8,50,BelowCanopyAboveMulch
Imazapic_1,pestc,3,55,,,,,0.4,100,BelowCanopyAboveMulch
Imazapic_1,pestd,4,90,,,,,0.4,100,BelowCanopyAboveMulch
Haloxyfop_1,,,,tilla,1,81,out,0.15,100,AboveCanopy
Haloxyfop_1,,,,tillap|tillb|tillbp|tillc,1,81,out,0.15,100,AboveCanopy
Glyphosate_1,,,,tilla,1,30,out,6,100,AboveCanopy
Glyphosate_1,,,,tilla,1,60,out,2,100,AboveCanopy
Glyphosate_1,,,,tillap|tillb|tillbp|tillc,1,30,out,6,100,AboveCanopy
Glyphosate_1,,,,tillap|tillb|tillbp|tillc,1,60,out,3,100,AboveCanopy
Glyphosate_1,,,,tillap|tillb|tillbp|tillc,1,160,out,3,100,AboveCanopy
Glyphosate_1,,,,tillcp,1,75,out,3,100,AboveCanopy
Glyphosate_1,,,,tillcp,1,135,out,3,100,AboveCanopy
Glyphosate_1,pesta,0,90,,,,,1,50,BelowCanopyAboveMulch
Glyphosate_1,pesta,2,10|60,,,,,1,50,BelowCanopyAboveMulch
Glyphosate_1,pesta,3,10|60,,,,,1,50,BelowCanopyAboveMulch
Fluroxypyr_1,,,,tilla,1,30,out,0.5,100,AboveCanopy
Fluroxypyr_1,,,,tillap|tillb|tillbp|tillc,1,30,out,0.5,100,AboveCanopy
twofourD_1,,,,tillap|tillb|tillbp|tillc,,160,out,0.5,100,AboveCanopy
twofourD_1,,,,tillcp,1,75|135,out,0.5,100,AboveCanopy
twofourD_1,pesta,0,14,,,,,0.5,100,BelowCanopyAboveMulch
twofourD_1,pesta,0,90,,,,,0.5,50,BelowCanopyAboveMulch
twofourD_1,pesta,1,21|90,,,,,0.5,50,BelowCanopyAboveMulch
twofourD_1,pesta,2,10|60,,,,,0.5,50,BelowCanopyAboveMulch
twofourD_1,pesta,3,10|60,,,,,0.5,50,BelowCanopyAboveMulch
twofourD_1,pesta,4,10|60,,,,,0.5,100,BelowCanopyAboveMulch
twofourD_1,pestb,0,14,,,,,0.5,100,BelowCanopyAboveMulch
twofourD_1,pestb,0,160,,,,,0.5,100,BelowCanopyAboveMulch
twofourD_1,pestb,1,21|90,,,,,0.5,50,BelowCanopyAboveMulch
twofourD_1,pestb,2,10,,,,,0.5,100,BelowCanopyAboveMulch
twofourD_1,pestb,3,10,,,,,0.5,100,BelowCanopyAboveMulch
twofourD_1,pestb,3,60,,,,,0.5,50,BelowCanopyAboveMulch
twofourD_1,pestb,4,10,,,,,0.5,100,BelowCanopyAboveMulch
twofourD_1,pestb,4,60,,,,,0.5,50,AboveCanopy
twofourD_1,pestc,0,14|90|160,,,,,0.75,100,BelowCanopyAboveMulch
twofourD_1,pestc,1,21|55,,,,,0.75,100,BelowCanopyAboveMulch
twofourD_1,pestc,2,14|55,,,,,0.75,100,BelowCanopyAboveMulch
twofourD_1,pestc,2,90,,,,,0.75,100,AboveCanopy
twofourD_1,pestc,3,14|55,,,,,0.75,100,BelowCanopyAboveMulch
twofourD_1,pestc,4,14|55,,,,,0.75,100,BelowCanopyAboveMulch
twofourD_1,pestc,4,90,,,,,0.75,100,AboveCanopy
twofourD_1,pestd,0,21|90|160,,,,,0.75,100,BelowCanopyAboveMulch
twofourD_1,pestd,1,21|55|90,,,,,0.75,100,BelowCanopyAboveMulch
twofourD_1,pestd,2,14|55|90,,,,,0.75,100,BelowCanopyAboveMulch
twofourD_1,pestd,3,14|55|90,,,,,0.75,100,BelowCanopyAboveMulch
twofourD_1,pestd,4,14|55|90,,,,,0.75,100,BelowCanopyAboveMulch
Paraquat_1,pesta,0,14,,,,,1.2,100,BelowCanopyAboveMulch
Paraquat_1,pesta,0,90,,,,,1,50,BelowCanopyAboveMulch
Paraquat_1,pesta,1,21|90,,,,,1,50,BelowCanopyAboveMulch
Paraquat_1,pesta,2,10|60,,,,,1,50,BelowCanopyAboveMulch
Paraquat_1,pesta,3,10|60,,,,,1,50,BelowCanopyAboveMulch
Paraquat_1,pesta,4,10|60,,,,,1.2,100,BelowCanopyAboveMulch
Paraquat_1,pestb,0,14|90,,,,,1.2,100,BelowCanopyAboveMulch
Paraquat_1,pestb,1,21|90,,,,,1,50,BelowCanopyAboveMulch
Paraquat_1,pestb,2,10,,,,,1.2,100,BelowCanopyAboveMulch
Paraquat_1,pestb,3,10,,,,,1.2,100,BelowCanopyAboveMulch
Paraquat_1,pestb,3,60,,,,,1,50,BelowCanopyAboveMulch
Paraquat_1,pestb,4,60,,,,,1.2,100,BelowCanopyAboveMulch
Paraquat_1,pestc,0,14|90|160,,,,,1.5,100,BelowCanopyAboveMulch
Paraquat_1,pestc,1,21|55,,,,,1.6,100,BelowCanopyAboveMulch
Paraquat_1,pestc,2,14|55,,,,,1.6,100,BelowCanopyAboveMulch
Paraquat_1,pestc,3,14|55,,,,,1.6,100,BelowCanopyAboveMulch
Paraquat_1,pestc,4,14|55,,,,,1.6,100,BelowCanopyAboveMulch
Paraquat_1,pestd,0,21,,,,,1.6,100,BelowCanopyAboveMulch
Paraquat_1,pestd,0,90|160,,,,,1.5,100,BelowCanopyAboveMulch
Paraquat_1,pestd,1,21|55|90,,,,,1.6,100,BelowCanopyAboveMulch
Paraquat_1,pestd,2,14|55|90,,,,,1.6,100,BelowCanopyAboveMulch
Paraquat_1,pestd,3,14|55|90,,,,,1.6,100,BelowCanopyAboveMulch
Paraquat_1,pestd,4,14|55|90,,,,,1.6,100,BelowCanopyAboveMulch
Diuron_2,pestc,0,14,,,,,0.5,100,BelowCanopyAboveMulch
Diuron_2,pestc,1,21,,,,,0.5,100,BelowCanopyAboveMulch
Diuron_2,pestc,1,55,,,,,0.5,100,BelowCanopyAboveMulch
Diuron_2,pestc,2,14,,,,,0.5,100,BelowCanopyAboveMulch
Diuron_2,pestc,3,14,,,,,0.5,100,BelowCanopyAboveMulch
Diuron_2,pestc,4,14,,,,,0.5,100,BelowCanopyAboveMulch
Diuron_2,pestd,0,21,,,,,0.5,100,BelowCanopyAboveMulch
Diuron_2,pestd,0,160,,,,,0.5,100,BelowCanopyAboveMulch
Diuron_2,pestd,1,21,,,,,0.5,100,BelowCanopyAboveMulch
Diuron_2,pestd,1,90,,,,,0.5,100,BelowCanopyAboveMulch
Diuron_2,pestd,2,14,,,,,0.5,100,BelowCanopyAboveMulch
Diuron_2,pestd,2,90,,,,,0.5,100,BelowCanopyAboveMulch
Diuron_2,pestd,3,14,,,,,0.5,100,BelowCanopyAboveMulch
Diuron_2,pestd,3,90,,,,,0.5,100,BelowCanopyAboveMulch
Diuron_2,pestd,4,14,,,,,0.5,100,BelowCanopyAboveMulch
Diuron_2,pestd,4,90,,,,,0.5,100,BelowCanopyAboveMulch
Atrazine_2,pestb,0,14,,,,,0.5,50,BelowCanopyAboveMulch
Atrazine_2,pestb,1,21,,,,,1.5,50,BelowCanopyAboveMulch
Atrazine_2,pestb,3,10,,,,,1.5,50,BelowCanopyAboveMulch
Atrazine_2,pestc,0,14,,,,,0.5,100,BelowCanopyAboveMulch
Atrazine_2,pestc,0,90,,,,,0.5,100,BelowCanopyAboveMulch
Atrazine_2,pestc,1,21,,,,,0.5,100,BelowCanopyAboveMulch
Atrazine_2,pestc,1,55,,,,,2,100,BelowCanopyAboveMulch
Atrazine_2,pestc,2,14,,,,,0.5,100,BelowCanopyAboveMulch
Atrazine_2,pestc,2,55,,,,,2,100,BelowCanopyAboveMulch
Atrazine_2,pestc,3,14,,,,,0.5,100,BelowCanopyAboveMulch
Atrazine_2,pestc,3,55,,,,,2,100,BelowCanopyAboveMulch
Atrazine_2,pestc,4,14,,,,,0.5,100,BelowCanopyAboveMulch
Atrazine_2,pestc,4,55,,,,,2,100,BelowCanopyAboveMulch
Metribuzin_2,pestb,1,90,,,,,1,50,BelowCanopyAboveMulch
Metribuzin_2,pestc,3,55,,,,,0.4,100,BelowCanopyAboveMulch
Imazapic_2,pestb,0,14,,,,,0.4,50,BelowCanopyAboveMulch
Imazapic_2,pestb,3,60,,,,,0.4,50,BelowCanopyAboveMulch
Imazapic_2,pestc,4,55,,,,,0.4,100,BelowCanopyAboveMulch
Imazapic_2,pestd,1,55,,,,,0.4,100,BelowCanopyAboveMulch
Imazapic_2,pestd,3,55,,,,,0.4,100,BelowCanopyAboveMulch
Imazapic_2,pestd,4,55,,,,,0.4,100,BelowCanopyAboveMulch
Smetolachlor_2,pestc,0,90,,,,,1.8,100,BelowCanopyAboveMulch
Smetolachlor_2,pestd,0,90,,,,,1.8,100,BelowCanopyAboveMulch
Isoxaflutole_2,pestc,2,55,,,,,0.15,100,BelowCanopyAboveMulch
Isoxaflutole_2,pestd,2,55,,,,,0.2,100,BelowCanopyAboveMulch
Isoxaflutole_2,pestd,4,90,,,,,0.2,100,BelowCanopyAboveMulch
Haloxyfop_2,,,,tilla,1,81,out,0.15,100,AboveCanopy
Haloxyfop_2,,,,tillap|tillb|tillbp|tillc,1,81,out,0.15,100,AboveCanopy
Glyphosate_2,,,,tilla,1,30,out,6,100,AboveCanopy
Glyphosate_2,,,,tilla,1,60,out,2,100,AboveCanopy
Glyphosate_2,,,,tillap|tillb|tillbp|tillc,1,30,out,6,100,AboveCanopy
Glyphosate_2,,,,tillap|tillb|tillbp|tillc,1,60,out,3,100,AboveCanopy
Glyphosate_2,,,,tillap|tillb|tillbp|tillc,1,160,out,3,100,AboveCanopy
Glyphosate_2,,,,tillcp,1,75,out,3,100,AboveCanopy
Glyphosate_2,,,,tillcp,1,135,out,3,100,AboveCanopy
Fluroxypyr_2,,,,tilla,1,30,out,0.5,100,AboveCanopy
Fluroxypyr_2,,,,tillap|tillb|tillbp|tillc,1,30,out,0.5,100,AboveCanopy
Fluroxypyr_2,pesta,0,90,,,,,0.5,100,BelowCanopyAboveMulch
Fluroxypyr_2,pesta,2,60,,,,,0.6,100,BelowCanopyAboveMulch
Fluroxypyr_2,pestb,2,60,,,,,0.6,100,BelowCanopyAboveMulch
Fluroxypyr_2,pestc,4,90,,,,,0.5,100,AboveCanopy
twofourD_2,,,,tillap|tillb|tillbp|tillc,,160,out,0.5,100,AboveCanopy
twofourD_2,,,,tillcp,1,75|135,out,0.5,100,AboveCanopy
twofourD_2,pesta,2,10,,,,,0.5,100,BelowCanopyAboveMulch
twofourD_2,pesta,4,60,,,,,0.7,100,BelowCanopyAboveMulch
twofourD_2,pestb,0,14|160,,,,,0.5,100,BelowCanopyAboveMulch
twofourD_2,pestb,1,21|90,,,,,0.5,100,BelowCanopyAboveMulch
twofourD_2,pestb,2,10,,,,,0.5,100,BelowCanopyAboveMulch
twofourD_2,pestb,3,10,,,,,0.75,100,AboveCanopy
twofourD_2,pestb,3,60,,,,,0.5,100,AboveCanopy
twofourD_2,pestb,4,60,,,,,0.7,100,BelowCanopyAboveMulch
twofourD_2,pestc,0,14|90,,,,,0.75,100,BelowCanopyAboveMulch
twofourD_2,pestc,1,21|55,,,,,0.75,100,BelowCanopyAboveMulch
twofourD_2,pestc,2,14|55,,,,,0.75,100,BelowCanopyAboveMulch
twofourD_2,pestc,2,90,,,,,0.75,100,AboveCanopy
twofourD_2,pestc,3,14|55,,,,,0.75,100,BelowCanopyAboveMulch
twofourD_2,pestc,4,14|55,,,,,0.75,100,BelowCanopyAboveMulch
twofourD_2,pestd,0,21|90|160,,,,,0.75,100,BelowCanopyAboveMulch
twofourD_2,pestd,1,21|55|90,,,,,0.75,100,BelowCanopyAboveMulch
twofourD_2,pestd,2,14|55|90,,,,,0.75,100,BelowCanopyAboveMulch
twofourD_2,pestd,3,14|55|90,,,,,0.75,100,BelowCanopyAboveMulch
twofourD_2,pestd,4,14|55|90,,,,,0.75,100,BelowCanopyAboveMulch
Paraquat_2,pesta,0,14|90,,,,,1.2,100,BelowCanopyAboveMulch
Paraquat_2,pesta,1,21|90,,,,,1.2,50,BelowCanopyAboveMulch
Paraquat_2,pesta,2,10,,,,,1.2,100,BelowCanopyAboveMulch
Paraquat_2,pesta,3,10|60,,,,,1.2,100,BelowCanopyAboveMulch
Paraquat_2,pesta,4,10|60,,,,,1.2,100,BelowCanopyAboveMulch
Paraquat_2,pestb,0,14,,,,,1.2,100,BelowCanopyAboveMulch
Paraquat_2,pestb,1,21|90,,,,,1.2,100,BelowCanopyAboveMulch
Paraquat_2,pestb,2,10,,,,,1.2,100,BelowCanopyAboveMulch
Paraquat_2,pestb,3,10|60,,,,,1.2,100,BelowCanopyAboveMulch
Paraquat_2,pestb,4,10|60,,,,,1.2,100,BelowCanopyAboveMulch
Paraquat_2,pestc,0,14|90,,,,,1.5,100,BelowCanopyAboveMulch
Paraquat_2,pestc,1,21|55,,,,,1.6,100,BelowCanopyAboveMulch
Paraquat_2,pestc,2,14|55,,,,,1.6,100,BelowCanopyAboveMulch
Paraquat_2,pestc,3,14|55,,,,,1.6,100,BelowCanopyAboveMulch
Paraquat_2,pestc,4,14|55,,,,,1.6,100,BelowCanopyAboveMulch
Paraquat_2,pestd,0,21,,,,,1.6,100,BelowCanopyAboveMulch
Paraquat_2,pestd,0,90|160,,,,,1.5,100,BelowCanopyAboveMulch
Paraquat_2,pestd,1,21|55|90,,,,,1.6,100,BelowCanopyAboveMulch
Paraquat_2,pestd,2,14|55|90,,,,,1.6,100,BelowCanopyAboveMulch
Paraquat_2,pestd,3,14|55|90,,,,,1.6,100,BelowCanopyAboveMulch
Paraquat_2,pestd,4,14|55|90,,,,,1.6,100,BelowCanopyAboveMulch
MCPA_2,pesta,0,14,,,,,1,100,BelowCanopyAboveMulch
MCPA_2,pesta,1,21|90,,,,,1,100,BelowCanopyAboveMulch
MCPA_2,pesta,3,10|60,,,,,1,100,BelowCanopyAboveMulch
MCPA_2,pesta,4,10,,,,,1,100,BelowCanopyAboveMulch
MCPA_2,pestb,4,10,,,,,1,100,BelowCanopyAboveMulch
