SoilName,SOWREG,MetCode
2Dyb,BRIA,1960-14725
2Uge,BRIA,1960-14725
6Dbb,BRIA,1960-14725
6Dyf,BRIA,1960-14725
6Umb,BRIA,1960-14725
BUfc,Delta,1960-14725
BUma,Delta,1960-14725
Rugb,Delta,1960-14725
2Dyb,BRIA,1960-14730
2Uge,BRIA,1960-14730
6Dyf,BRIA,1960-14730
6Umb,BRIA,1960-14730
BUfc,Delta,1965-14745
BUma,Delta,1965-14745
Rugb,Delta,1965-14745
2Ugg,BRIA,1970-14695
2Dya,BRIA,1980-14715
2Dyb,BRIA,1980-14715
2Uge,BRIA,1980-14715
2Ugg,BRIA,1980-14715
2Dya,BRIA,1980-14725
2Dyb,BRIA,1980-14725
2Uge,BRIA,1980-14725
2Ugg,BRIA,1980-14725
6Dyf,BRIA,1980-14725
6Umb,BRIA,1980-14725
BUfc,Delta,1980-14740
BUma,Delta,1980-14740
Rugb,Delta,1980-14740
2Dya,BRIA,1990-14725
2Dyb,BRIA,1990-14725
2Uge,BRIA,1990-14725
2Ugg,BRIA,1990-14725
5Dra,BRIA,1990-14725
6Dyf,BRIA,1990-14725
6Umb,BRIA,1990-14725
2Ugg,BRIA,1990-14775
BUfc,Delta,1990-14775
6Dyf,BRIA,2000-14725
6Dyf,BRIA,2020-14730
