SoilName,SOWREG,MetCode
2Uge,BRIA,1960-14725
BUfc,Delta,1960-14725
Rugb,Delta,1960-14725
2Uge,BRIA,1960-14730
6Dyf,BRIA,1960-14730
BUfc,Delta,1965-14745
Rugb,Delta,1965-14745
2Dyb,BRIA,1980-14725
2Uge,BRIA,1980-14725
6Dyf,BRIA,1980-14725
BUfc,Delta,1980-14740
Rugb,Delta,1980-14740
