SoilName,SOWREG,MetCode
2Dya,BRIA,1960-14725
2Dyb,BRIA,1960-14725
2Uge,BRIA,1960-14725
RUgb,delta,1960-14725
2Ugg,BRIA,1960-14725
5Dra,BRIA,1960-14725
6Dbb,BRIA,1960-14725
6Dyb,BRIA,1960-14725
6Dyf,BRIA,1960-14725
6Umb,BRIA,1960-14725
BUfc,delta,1960-14725
BUma,BRIA,1960-14725
BUma,delta,1960-14725
