pesticide,pestmgmt,ratoon_no,sugarDAS,tillageCode,fallow_flag,DAS,sugarStatus,pest_Rate,pest_BandingPercent,ApplicationPosition
Diuron_1,pestc,1,94,,,,,0.465,100,BelowCanopyAboveMulch
Diuron_1,pestc,2,90,,,,,0.465,100,BelowCanopyAboveMulch
Diuron_1,pestc,3,61,,,,,0.465,100,BelowCanopyAboveMulch
Diuron_1,pestc,4,60,,,,,0.465,100,BelowCanopyAboveMulch
Diuron_1,pestc,5,60,,,,,0.465,100,BelowCanopyAboveMulch
Diuron_1,pestd,0,10,,,,,0.5,100,BelowCanopyAboveMulch
Diuron_1,pestd,1,60,,,,,0.207,100,BelowCanopyAboveMulch
Diuron_1,pestd,1,151,,,,,0.258,100,BelowCanopyAboveMulch
Diuron_1,pestd,2,60,,,,,0.207,100,BelowCanopyAboveMulch
Diuron_1,pestd,2,118,,,,,0.258,100,BelowCanopyAboveMulch
Diuron_1,pestd,3,45,,,,,0.207,100,BelowCanopyAboveMulch
Diuron_1,pestd,3,74,,,,,0.258,100,BelowCanopyAboveMulch
Diuron_1,pestd,4,45,,,,,0.207,100,BelowCanopyAboveMulch
Diuron_1,pestd,4,66,,,,,0.258,100,BelowCanopyAboveMulch
Diuron_1,pestd,5,45,,,,,0.207,100,BelowCanopyAboveMulch
Diuron_1,pestd,5,66,,,,,0.258,100,BelowCanopyAboveMulch
Hexazinone_1,pestc,1,94,,,,,0.9,100,BelowCanopyAboveMulch
Hexazinone_1,pestc,2,90,,,,,0.9,100,BelowCanopyAboveMulch
Hexazinone_1,pestc,3,61,,,,,0.9,100,BelowCanopyAboveMulch
Hexazinone_1,pestc,4,60,,,,,0.9,100,BelowCanopyAboveMulch
Hexazinone_1,pestc,5,60,,,,,0.9,100,BelowCanopyAboveMulch
Hexazinone_1,pestd,1,60,,,,,0.4,100,BelowCanopyAboveMulch
Hexazinone_1,pestd,1,151,,,,,0.5,100,BelowCanopyAboveMulch
Hexazinone_1,pestd,2,60,,,,,0.4,100,BelowCanopyAboveMulch
Hexazinone_1,pestd,2,118,,,,,0.5,100,BelowCanopyAboveMulch
Hexazinone_1,pestd,3,45,,,,,0.4,100,BelowCanopyAboveMulch
Hexazinone_1,pestd,3,74,,,,,0.5,100,BelowCanopyAboveMulch
Hexazinone_1,pestd,4,45,,,,,0.4,100,BelowCanopyAboveMulch
Hexazinone_1,pestd,4,66,,,,,0.5,100,BelowCanopyAboveMulch
Hexazinone_1,pestd,5,45,,,,,0.4,100,BelowCanopyAboveMulch
Hexazinone_1,pestd,5,66,,,,,0.5,100,BelowCanopyAboveMulch
Atrazine_1,pestb,0,10,,,,,2,50,BelowCanopyAboveMulch
Atrazine_1,pestc,0,10,,,,,2.5,100,BelowCanopyAboveMulch
Atrazine_1,pestd,0,10,,,,,3.3,100,BelowCanopyAboveMulch
Atrazine_1,pestd,1,60,,,,,2,100,BelowCanopyAboveMulch
Atrazine_1,pestd,1,151,,,,,1,100,BelowCanopyAboveMulch
Atrazine_1,pestd,2,60,,,,,2,100,BelowCanopyAboveMulch
Atrazine_1,pestd,2,118,,,,,1,100,BelowCanopyAboveMulch
Atrazine_1,pestd,3,45,,,,,2,100,BelowCanopyAboveMulch
Atrazine_1,pestd,3,74,,,,,1,100,BelowCanopyAboveMulch
Atrazine_1,pestd,4,45,,,,,2,100,BelowCanopyAboveMulch
Atrazine_1,pestd,4,66,,,,,1,100,BelowCanopyAboveMulch
Atrazine_1,pestd,5,45,,,,,2,100,BelowCanopyAboveMulch
Atrazine_1,pestd,5,66,,,,,1,100,BelowCanopyAboveMulch
Pendimethalin_1,pestb,0,10,,,,,3,50,BelowCanopyAboveMulch
Pendimethalin_1,pestc,0,10,,,,,3.3,100,BelowCanopyAboveMulch
Pendimethalin_1,pestd,0,10,,,,,3.3,100,BelowCanopyAboveMulch
Pendimethalin_1,pestd,0,109,,,,,3.3,100,BelowCanopyAboveMulch
Metribuzin_1,pesta,0,10,,,,,2,50,BelowCanopyAboveMulch
Metribuzin_1,pestb,0,109,,,,,1.2,50,BelowCanopyAboveMulch
Metribuzin_1,pestb,1,70,,,,,0.6,100,BelowCanopyAboveMulch
Metribuzin_1,pestb,3,70,,,,,0.6,100,BelowCanopyAboveMulch
Metribuzin_1,pestb,5,60,,,,,0.6,100,BelowCanopyAboveMulch
Metribuzin_1,pestc,0,109,,,,,1.6,100,BelowCanopyAboveMulch
Metribuzin_1,pestc,1,94,,,,,1,100,BelowCanopyAboveMulch
Metribuzin_1,pestc,2,90,,,,,1,100,BelowCanopyAboveMulch
Metribuzin_1,pestc,3,61,,,,,1,100,BelowCanopyAboveMulch
Metribuzin_1,pestc,4,60,,,,,1,100,BelowCanopyAboveMulch
Metribuzin_1,pestc,5,60,,,,,1,100,BelowCanopyAboveMulch
Isoxaflutole_1,pestb,1,3,,,,,0.15,50,BelowCanopyAboveMulch
Isoxaflutole_1,pestb,2,3,,,,,0.15,50,BelowCanopyAboveMulch
Isoxaflutole_1,pestb,3,3,,,,,0.15,50,BelowCanopyAboveMulch
Isoxaflutole_1,pestb,4,3,,,,,0.15,50,BelowCanopyAboveMulch
Isoxaflutole_1,pestb,5,3,,,,,0.15,50,BelowCanopyAboveMulch
Isoxaflutole_1,pestc,1,7,,,,,0.2,100,BelowCanopyAboveMulch
Isoxaflutole_1,pestc,2,7,,,,,0.2,100,BelowCanopyAboveMulch
Isoxaflutole_1,pestc,3,7,,,,,0.2,100,BelowCanopyAboveMulch
Isoxaflutole_1,pestc,4,7,,,,,0.2,100,BelowCanopyAboveMulch
Isoxaflutole_1,pestc,5,7,,,,,0.2,100,BelowCanopyAboveMulch
Smetolachlor_1,pestb,0,109,,,,,1.5,50,BelowCanopyAboveMulch
Smetolachlor_1,pestc,0,109,,,,,1.8,100,BelowCanopyAboveMulch
twofourD_1,pesta,0,122,,,,,2.08,100,BelowCanopyAboveMulch
twofourD_1,pesta,0,169,,,,,1.5,100,BelowCanopyAboveMulch
twofourD_1,pesta,1,31,,,,,1.6,50,BelowCanopyAboveMulch
twofourD_1,pesta,1,98,,,,,1.6,50,BelowCanopyAboveMulch
twofourD_1,pesta,2,30,,,,,1.6,50,BelowCanopyAboveMulch
twofourD_1,pesta,2,93,,,,,1.6,50,BelowCanopyAboveMulch
twofourD_1,pesta,2,93,,,,,1,100,AboveCanopy
twofourD_1,pesta,3,23,,,,,1.6,50,BelowCanopyAboveMulch
twofourD_1,pesta,3,66,,,,,1.6,50,BelowCanopyAboveMulch
twofourD_1,pesta,4,22,,,,,1.6,50,BelowCanopyAboveMulch
twofourD_1,pesta,4,60,,,,,1.6,50,BelowCanopyAboveMulch
twofourD_1,pesta,5,22,,,,,1.6,50,BelowCanopyAboveMulch
twofourD_1,pesta,5,60,,,,,1.6,50,BelowCanopyAboveMulch
twofourD_1,pestb,0,92,,,,,2,50,BelowCanopyAboveMulch
twofourD_1,pestb,1,70,,,,,2,100,AboveCanopy
twofourD_1,pestb,2,70,,,,,2,100,AboveCanopy
twofourD_1,pestb,3,70,,,,,2,100,AboveCanopy
twofourD_1,pestb,4,60,,,,,2,100,AboveCanopy
twofourD_1,pestb,5,60,,,,,2,100,AboveCanopy
twofourD_1,pestc,0,109,,,,,2.3,100,BelowCanopyAboveMulch
twofourD_1,pestc,1,94,,,,,2,100,AboveCanopy
twofourD_1,pestc,2,90,,,,,2,100,AboveCanopy
twofourD_1,pestc,3,61,,,,,2,100,AboveCanopy
twofourD_1,pestc,4,60,,,,,2,100,AboveCanopy
twofourD_1,pestc,5,60,,,,,2,100,AboveCanopy
twofourD_1,pestd,0,109,,,,,3.7,100,AboveCanopy
twofourD_1,pestd,0,109,,,,,0.75,100,AboveCanopy
twofourD_1,pestd,1,60,,,,,2,100,BelowCanopyAboveMulch
twofourD_1,pestd,1,151,,,,,2,100,AboveCanopy
twofourD_1,pestd,2,60,,,,,2,100,BelowCanopyAboveMulch
twofourD_1,pestd,2,118,,,,,2,100,AboveCanopy
twofourD_1,pestd,3,45,,,,,2,100,BelowCanopyAboveMulch
twofourD_1,pestd,3,74,,,,,2,100,AboveCanopy
twofourD_1,pestd,4,45,,,,,2,100,BelowCanopyAboveMulch
twofourD_1,pestd,4,66,,,,,2,100,AboveCanopy
twofourD_1,pestd,5,45,,,,,2,100,BelowCanopyAboveMulch
twofourD_1,pestd,5,66,,,,,2,100,AboveCanopy
Paraquat_1,pesta,0,10,,,,,1.2,100,BelowCanopyAboveMulch
Paraquat_1,pesta,0,122,,,,,1.2,50,BelowCanopyAboveMulch
Paraquat_1,pesta,0,169,,,,,1.2,50,BelowCanopyAboveMulch
Paraquat_1,pesta,1,31,,,,,1.2,50,BelowCanopyAboveMulch
Paraquat_1,pesta,1,98,,,,,1,50,BelowCanopyAboveMulch
Paraquat_1,pesta,2,30,,,,,1.2,50,BelowCanopyAboveMulch
Paraquat_1,pesta,2,93,,,,,1,50,BelowCanopyAboveMulch
Paraquat_1,pesta,3,23,,,,,1.2,50,BelowCanopyAboveMulch
Paraquat_1,pesta,3,66,,,,,1,50,BelowCanopyAboveMulch
Paraquat_1,pesta,4,22,,,,,1.2,50,BelowCanopyAboveMulch
Paraquat_1,pesta,4,60,,,,,1,50,BelowCanopyAboveMulch
Paraquat_1,pesta,5,22,,,,,1.2,50,BelowCanopyAboveMulch
Paraquat_1,pesta,5,60,,,,,1,50,BelowCanopyAboveMulch
Paraquat_1,pestb,0,10,,,,,1.2,100,BelowCanopyAboveMulch
Paraquat_1,pestb,0,92,,,,,1.2,50,BelowCanopyAboveMulch
Paraquat_1,pestb,0,109,,,,,1.2,100,BelowCanopyAboveMulch
Paraquat_1,pestb,1,70,,,,,1.5,100,BelowCanopyAboveMulch
Paraquat_1,pestb,2,70,,,,,1.5,100,BelowCanopyAboveMulch
Paraquat_1,pestb,3,70,,,,,1.5,100,BelowCanopyAboveMulch
Paraquat_1,pestb,4,60,,,,,1.5,100,BelowCanopyAboveMulch
Paraquat_1,pestb,5,60,,,,,1.5,100,BelowCanopyAboveMulch
Paraquat_1,pestc,0,10,,,,,1.5,100,BelowCanopyAboveMulch
Paraquat_1,pestc,0,109,,,,,1.2,100,BelowCanopyAboveMulch
Paraquat_1,pestc,1,7,,,,,1.2,100,BelowCanopyAboveMulch
Paraquat_1,pestc,1,94,,,,,1.2,100,BelowCanopyAboveMulch
Paraquat_1,pestc,2,7,,,,,1.2,100,BelowCanopyAboveMulch
Paraquat_1,pestc,2,90,,,,,1.2,100,BelowCanopyAboveMulch
Paraquat_1,pestc,3,7,,,,,1.2,100,BelowCanopyAboveMulch
Paraquat_1,pestc,3,61,,,,,1.2,100,BelowCanopyAboveMulch
Paraquat_1,pestc,4,7,,,,,1.2,100,BelowCanopyAboveMulch
Paraquat_1,pestc,4,60,,,,,1.2,100,BelowCanopyAboveMulch
Paraquat_1,pestc,5,7,,,,,1.2,100,BelowCanopyAboveMulch
Paraquat_1,pestc,5,60,,,,,1.2,100,BelowCanopyAboveMulch
Paraquat_1,pestd,0,10,,,,,1.6,100,BelowCanopyAboveMulch
Paraquat_1,pestd,0,109,,,,,1.6,100,BelowCanopyAboveMulch
Paraquat_1,pestd,1,60,,,,,1.5,100,BelowCanopyAboveMulch
Paraquat_1,pestd,1,151,,,,,1.5,100,BelowCanopyAboveMulch
Paraquat_1,pestd,2,60,,,,,1.5,100,BelowCanopyAboveMulch
Paraquat_1,pestd,2,118,,,,,1.5,100,BelowCanopyAboveMulch
Paraquat_1,pestd,3,45,,,,,1.5,100,BelowCanopyAboveMulch
Paraquat_1,pestd,3,74,,,,,1.5,100,BelowCanopyAboveMulch
Paraquat_1,pestd,4,45,,,,,1.5,100,BelowCanopyAboveMulch
Paraquat_1,pestd,4,66,,,,,1.5,100,BelowCanopyAboveMulch
Paraquat_1,pestd,5,45,,,,,1.5,100,BelowCanopyAboveMulch
Paraquat_1,pestd,5,66,,,,,1.5,100,BelowCanopyAboveMulch
Glyphosate_1,pesta,0,169,,,,,1.2,50,BelowCanopyAboveMulch
Glyphosate_1,pesta,1,98,,,,,1.2,50,BelowCanopyAboveMulch
Glyphosate_1,pesta,2,93,,,,,1.2,50,BelowCanopyAboveMulch
Glyphosate_1,pesta,3,66,,,,,1.2,50,BelowCanopyAboveMulch
Glyphosate_1,pesta,4,60,,,,,1.2,50,BelowCanopyAboveMulch
Glyphosate_1,pesta,5,60,,,,,1.2,50,BelowCanopyAboveMulch
Glyphosate_1,,,,tilla|tillap|tillb,1,120,out,2,100,AboveCanopy
Glyphosate_1,,,,tillbp|tillc,1,1,out,6,100,AboveCanopy
Glyphosate_1,,,,tillbp|tillc,1,120,out,2,100,AboveCanopy
Glyphosate_1,,,,tillcp,1,120,out,2,100,AboveCanopy
Haloxyfop_1,,,,tilla|tillap|tillb,1,28,out,0.4,100,AboveCanopy
Haloxyfop_1,,,,tillbp|tillc,1,28,out,0.4,100,AboveCanopy
Diuron_2,pestc,1,94,,,,,0.465,100,BelowCanopyAboveMulch
Diuron_2,pestc,2,90,,,,,0.465,100,BelowCanopyAboveMulch
Diuron_2,pestc,4,60,,,,,0.465,100,BelowCanopyAboveMulch
Diuron_2,pestc,5,60,,,,,0.465,100,BelowCanopyAboveMulch
Diuron_2,pestd,0,10,,,,,0.5,100,BelowCanopyAboveMulch
Diuron_2,pestd,1,60,,,,,0.207,100,BelowCanopyAboveMulch
Diuron_2,pestd,1,151,,,,,0.258,100,BelowCanopyAboveMulch
Diuron_2,pestd,2,60,,,,,0.207,100,BelowCanopyAboveMulch
Diuron_2,pestd,2,118,,,,,0.258,100,BelowCanopyAboveMulch
Diuron_2,pestd,3,45,,,,,0.207,100,BelowCanopyAboveMulch
Diuron_2,pestd,3,74,,,,,0.258,100,BelowCanopyAboveMulch
Diuron_2,pestd,4,45,,,,,0.207,100,BelowCanopyAboveMulch
Diuron_2,pestd,4,66,,,,,0.258,100,BelowCanopyAboveMulch
Diuron_2,pestd,5,45,,,,,0.207,100,BelowCanopyAboveMulch
Diuron_2,pestd,5,66,,,,,0.258,100,BelowCanopyAboveMulch
Hexazinone_2,pestb,0,109,,,,,2.75,50,BelowCanopyAboveMulch
Hexazinone_2,pestb,3,3,,,,,2.75,50,BelowCanopyAboveMulch
Hexazinone_2,pestc,0,109,,,,,3.6,100,BelowCanopyAboveMulch
Hexazinone_2,pestc,3,7,,,,,2.75,100,BelowCanopyAboveMulch
Hexazinone_2,pestd,0,109,,,,,3.6,100,BelowCanopyAboveMulch
Hexazinone_2,pestc,1,94,,,,,0.9,100,BelowCanopyAboveMulch
Hexazinone_2,pestc,2,90,,,,,0.9,100,BelowCanopyAboveMulch
Hexazinone_2,pestc,4,60,,,,,0.9,100,BelowCanopyAboveMulch
Hexazinone_2,pestc,5,60,,,,,0.9,100,BelowCanopyAboveMulch
Hexazinone_2,pestd,1,60,,,,,0.4,100,BelowCanopyAboveMulch
Hexazinone_2,pestd,1,151,,,,,0.5,100,BelowCanopyAboveMulch
Hexazinone_2,pestd,2,60,,,,,0.4,100,BelowCanopyAboveMulch
Hexazinone_2,pestd,2,118,,,,,0.5,100,BelowCanopyAboveMulch
Hexazinone_2,pestd,3,45,,,,,0.4,100,BelowCanopyAboveMulch
Hexazinone_2,pestd,3,74,,,,,0.5,100,BelowCanopyAboveMulch
Hexazinone_2,pestd,4,45,,,,,0.4,100,BelowCanopyAboveMulch
Hexazinone_2,pestd,4,66,,,,,0.5,100,BelowCanopyAboveMulch
Hexazinone_2,pestd,5,45,,,,,0.4,100,BelowCanopyAboveMulch
Hexazinone_2,pestd,5,66,,,,,0.5,100,BelowCanopyAboveMulch
Atrazine_2,pestb,0,10,,,,,2,50,BelowCanopyAboveMulch
Atrazine_2,pestb,1,70,,,,,1,100,BelowCanopyAboveMulch
Atrazine_2,pestc,0,10,,,,,2.5,100,BelowCanopyAboveMulch
Atrazine_2,pestc,1,94,,,,,1,100,BelowCanopyAboveMulch
Atrazine_2,pestc,2,90,,,,,1,100,BelowCanopyAboveMulch
Atrazine_2,pestc,3,61,,,,,1,100,BelowCanopyAboveMulch
Atrazine_2,pestc,4,60,,,,,1,100,BelowCanopyAboveMulch
Atrazine_2,pestc,5,60,,,,,1,100,BelowCanopyAboveMulch
Atrazine_2,pestd,0,10,,,,,3.3,100,BelowCanopyAboveMulch
Atrazine_2,pestd,1,60,,,,,2,100,BelowCanopyAboveMulch
Atrazine_2,pestd,1,151,,,,,1,100,BelowCanopyAboveMulch
Atrazine_2,pestd,2,60,,,,,2,100,BelowCanopyAboveMulch
Atrazine_2,pestd,2,118,,,,,1,100,BelowCanopyAboveMulch
Atrazine_2,pestd,3,45,,,,,2,100,BelowCanopyAboveMulch
Atrazine_2,pestd,3,74,,,,,1,100,BelowCanopyAboveMulch
Atrazine_2,pestd,4,45,,,,,2,100,BelowCanopyAboveMulch
Atrazine_2,pestd,4,66,,,,,1,100,BelowCanopyAboveMulch
Atrazine_2,pestd,5,45,,,,,2,100,BelowCanopyAboveMulch
Atrazine_2,pestd,5,66,,,,,1,100,BelowCanopyAboveMulch
Isoxaflutole_2,pesta,0,10,,,,,0.2,50,BelowCanopyAboveMulch
Imazapic_2,pesta,0,10,,,,,0.4,50,BelowCanopyAboveMulch
Imazapic_2,pestb,0,109,,,,,0.302,50,BelowCanopyAboveMulch
Imazapic_2,pestb,1,3,,,,,0.4,50,BelowCanopyAboveMulch
Imazapic_2,pestb,3,3,,,,,0.302,50,BelowCanopyAboveMulch
Imazapic_2,pestb,5,3,,,,,0.4,50,BelowCanopyAboveMulch
Imazapic_2,pestc,0,109,,,,,0.396,100,BelowCanopyAboveMulch
Imazapic_2,pestc,1,7,,,,,0.4,100,BelowCanopyAboveMulch
Imazapic_2,pestc,2,7,,,,,0.4,100,BelowCanopyAboveMulch
Imazapic_2,pestc,3,7,,,,,0.302,100,BelowCanopyAboveMulch
Imazapic_2,pestc,4,7,,,,,0.4,100,BelowCanopyAboveMulch
Imazapic_2,pestc,5,7,,,,,0.4,100,BelowCanopyAboveMulch
Imazapic_2,pestd,0,109,,,,,0.396,100,BelowCanopyAboveMulch
Smetolachlor_2,pestb,0,10,,,,,2.9,50,BelowCanopyAboveMulch
Smetolachlor_2,pestc,0,10,,,,,3.3,100,BelowCanopyAboveMulch
Smetolachlor_2,pestd,0,10,,,,,3.6,100,BelowCanopyAboveMulch
twofourD_2,pesta,0,122,,,,,2.08,100,BelowCanopyAboveMulch
twofourD_2,pesta,0,169,,,,,1.5,100,BelowCanopyAboveMulch
twofourD_2,pesta,1,98,,,,,0.8,100,AboveCanopy
twofourD_2,pesta,2,93,,,,,0.8,100,AboveCanopy
twofourD_2,pesta,3,66,,,,,2,100,AboveCanopy
twofourD_2,pesta,4,60,,,,,0.8,100,AboveCanopy
twofourD_2,pesta,5,60,,,,,0.8,100,AboveCanopy
twofourD_2,pestb,0,92,,,,,2,50,BelowCanopyAboveMulch
twofourD_2,pestb,1,70,,,,,2,100,AboveCanopy
twofourD_2,pestb,2,70,,,,,0.8,100,AboveCanopy
twofourD_2,pestb,3,70,,,,,2,100,AboveCanopy
twofourD_2,pestb,4,60,,,,,0.8,100,AboveCanopy
twofourD_2,pestb,5,60,,,,,2,100,AboveCanopy
twofourD_2,pestc,0,109,,,,,2.3,100,BelowCanopyAboveMulch
twofourD_2,pestc,1,94,,,,,2,100,AboveCanopy
twofourD_2,pestc,2,90,,,,,2,100,AboveCanopy
twofourD_2,pestc,3,61,,,,,2,100,AboveCanopy
twofourD_2,pestc,4,60,,,,,2,100,AboveCanopy
twofourD_2,pestc,5,60,,,,,2,100,AboveCanopy
twofourD_2,pestd,0,109,,,,,3.7,100,AboveCanopy
twofourD_2,pestd,0,109,,,,,0.75,100,AboveCanopy
twofourD_2,pestd,1,60,,,,,2,100,BelowCanopyAboveMulch
twofourD_2,pestd,1,151,,,,,2,100,AboveCanopy
twofourD_2,pestd,2,60,,,,,2,100,BelowCanopyAboveMulch
twofourD_2,pestd,2,118,,,,,2,100,AboveCanopy
twofourD_2,pestd,3,45,,,,,2,100,BelowCanopyAboveMulch
twofourD_2,pestd,3,74,,,,,2,100,AboveCanopy
twofourD_2,pestd,4,45,,,,,2,100,BelowCanopyAboveMulch
twofourD_2,pestd,4,66,,,,,2,100,AboveCanopy
twofourD_2,pestd,5,45,,,,,2,100,BelowCanopyAboveMulch
twofourD_2,pestd,5,66,,,,,2,100,AboveCanopy
Paraquat_2,pesta,0,10,,,,,1.2,100,BelowCanopyAboveMulch
Paraquat_2,pesta,0,122,,,,,1.2,50,BelowCanopyAboveMulch
Paraquat_2,pesta,0,169,,,,,1.2,50,BelowCanopyAboveMulch
Paraquat_2,pestb,0,10,,,,,1.2,100,BelowCanopyAboveMulch
Paraquat_2,pestb,0,92,,,,,1.2,50,BelowCanopyAboveMulch
Paraquat_2,pestb,0,109,,,,,1.2,100,BelowCanopyAboveMulch
Paraquat_2,pestb,1,70,,,,,1.5,100,BelowCanopyAboveMulch
Paraquat_2,pestb,3,70,,,,,1.5,100,BelowCanopyAboveMulch
Paraquat_2,pestb,5,60,,,,,1.5,100,BelowCanopyAboveMulch
Paraquat_2,pestc,0,10,,,,,1.5,100,BelowCanopyAboveMulch
Paraquat_2,pestc,0,109,,,,,1.2,100,BelowCanopyAboveMulch
Paraquat_2,pestc,1,7,,,,,1.2,100,BelowCanopyAboveMulch
Paraquat_2,pestc,1,94,,,,,1.2,100,BelowCanopyAboveMulch
Paraquat_2,pestc,2,7,,,,,1.2,100,BelowCanopyAboveMulch
Paraquat_2,pestc,2,90,,,,,1.2,100,BelowCanopyAboveMulch
Paraquat_2,pestc,3,7,,,,,1.2,100,BelowCanopyAboveMulch
Paraquat_2,pestc,3,61,,,,,1.2,100,BelowCanopyAboveMulch
Paraquat_2,pestc,4,7,,,,,1.2,100,BelowCanopyAboveMulch
Paraquat_2,pestc,4,60,,,,,1.2,100,BelowCanopyAboveMulch
Paraquat_2,pestc,5,7,,,,,1.2,100,BelowCanopyAboveMulch
Paraquat_2,pestc,5,60,,,,,1.2,100,BelowCanopyAboveMulch
Paraquat_2,pestd,0,10,,,,,1.6,100,BelowCanopyAboveMulch
Paraquat_2,pestd,0,109,,,,,1.6,100,BelowCanopyAboveMulch
Paraquat_2,pestd,1,60,,,,,1.5,100,BelowCanopyAboveMulch
Paraquat_2,pestd,1,151,,,,,1.5,100,BelowCanopyAboveMulch
Paraquat_2,pestd,2,60,,,,,1.5,100,BelowCanopyAboveMulch
Paraquat_2,pestd,2,118,,,,,1.5,100,BelowCanopyAboveMulch
Paraquat_2,pestd,3,45,,,,,1.5,100,BelowCanopyAboveMulch
Paraquat_2,pestd,3,74,,,,,1.5,100,BelowCanopyAboveMulch
Paraquat_2,pestd,4,45,,,,,1.5,100,BelowCanopyAboveMulch
Paraquat_2,pestd,4,66,,,,,1.5,100,BelowCanopyAboveMulch
Paraquat_2,pestd,5,45,,,,,1.5,100,BelowCanopyAboveMulch
Paraquat_2,pestd,5,66,,,,,1.5,100,BelowCanopyAboveMulch
Glyphosate_2,pesta,0,169,,,,,1.2,50,BelowCanopyAboveMulch
Glyphosate_2,,,,tilla|tillap|tillb,1,120,out,2,100,AboveCanopy
Glyphosate_2,,,,tillbp|tillc,1,1,out,6,100,AboveCanopy
Glyphosate_2,,,,tillbp|tillc,1,120,out,2,100,AboveCanopy
Glyphosate_2,,,,tillcp,1,120,out,2,100,AboveCanopy
Haloxyfop_2,,,,tilla|tillap|tillb,1,28,out,0.4,100,AboveCanopy
Haloxyfop_2,,,,tillbp|tillc,1,28,out,0.4,100,AboveCanopy
Fluroxypyr_2,pesta,1,98,,,,,0.65,100,AboveCanopy
Fluroxypyr_2,pesta,2,93,,,,,0.65,100,AboveCanopy
Fluroxypyr_2,pesta,3,66,,,,,0.65,100,AboveCanopy
Fluroxypyr_2,pesta,4,60,,,,,0.65,100,AboveCanopy
Fluroxypyr_2,pesta,5,60,,,,,0.65,100,AboveCanopy
Fluroxypyr_2,pestb,2,70,,,,,0.65,100,AboveCanopy
Fluroxypyr_2,pestb,4,60,,,,,0.65,100,AboveCanopy
