P2RClass,Soil,Pest,Nutrient,TrafficCode,FertCode,TillageCode,FallowCode,PSplitCode,RSplitCode,PestManagement,BurnFlag
AfAfAf,A,A,A,ct,FertA,TillA,grain,split,early,PestA,0
AfBfBf,A,B,B,ct,FertB,TillA,grain,split,early,PestB,0
AfBpBp,A,Bp,Bp,ct,FertBp,TillA,grain,split,early,PestC,0
AfCfCf,A,C,C,ct,FertC,TillA,grain,split,early,PestC,0
AfCpCp,A,Cp,Cp,ct,FertCp,TillA,grain,split,early,PestD,0
AfDfDf,A,D,D,ct,FertD,TillA,grain,split,early,PestD,0
ApAfAf,Ap,A,A,ct,FertA,TillAp,grain,split,early,PestA,0
ApBfBf,Ap,B,B,ct,FertB,TillAp,grain,split,early,PestB,0
ApBpBp,Ap,Bp,Bp,ct,FertBp,TillAp,grain,split,early,PestC,0
ApCfCf,Ap,C,C,ct,FertC,TillAp,grain,split,early,PestC,0
ApCpCp,Ap,Cp,Cp,ct,FertCp,TillAp,grain,split,early,PestD,0
ApDfDf,Ap,D,D,ct,FertD,TillAp,grain,split,early,PestD,0
BfAfAf,B,A,A,ct,FertA,TillB,cover,split,early,PestA,0
BfBfBf,B,B,B,ct,FertB,TillB,cover,split,early,PestB,0
BfBpBp,B,Bp,Bp,ct,FertBp,TillB,cover,split,early,PestC,0
BfCfCf,B,C,C,ct,FertC,TillB,cover,split,early,PestC,0
BfCpCp,B,Cp,Cp,ct,FertCp,TillB,cover,split,early,PestD,0
BfDfDf,B,D,D,ct,FertD,TillB,cover,split,early,PestD,0
BpAfAf,Bp,A,A,ct,FertA,TillBp,cover,split,early,PestA,0
BpBfBf,Bp,B,B,ct,FertB,TillBp,cover,split,early,PestB,0
BpBpBp,Bp,Bp,Bp,ct,FertBp,TillBp,cover,split,early,PestC,0
BpCfCf,Bp,C,C,ct,FertC,TillBp,cover,split,early,PestC,0
BpCpCp,Bp,Cp,Cp,ct,FertCp,TillBp,cover,split,early,PestD,0
BpDfDf,Bp,D,D,ct,FertD,TillBp,cover,split,early,PestD,0
CfAfAf,C,A,A,ct,FertA,TillC,cover,split,early,PestA,0
CfBfBf,C,B,B,ct,FertB,TillC,cover,split,early,PestB,0
CfBpBp,C,Bp,Bp,ct,FertBp,TillC,cover,split,early,PestC,0
CfCfCf,C,C,C,ct,FertC,TillC,cover,split,early,PestC,0
CfCpCp,C,Cp,Cp,ct,FertCp,TillC,cover,split,early,PestD,0
CfDfDf,C,D,D,ct,FertD,TillC,cover,split,early,PestD,0
CpAfAf,Cp,A,A,cp,FertA,TillCp,bare,split,early,PestA,0
CpBfBf,Cp,B,B,cp,FertB,TillCp,bare,split,early,PestB,0
CpBpBp,Cp,Bp,Bp,cp,FertBp,TillCp,bare,split,early,PestC,0
CpCfCf,Cp,C,C,cp,FertC,TillCp,bare,split,early,PestC,0
CpCpCp,Cp,Cp,Cp,cp,FertCp,TillCp,bare,split,early,PestD,0
CpDfDf,Cp,D,D,cp,FertD,TillCp,bare,split,early,PestD,0
DfAfAf,D,A,A,cp,FertA,TillD,bare,split,early,PestA,1
DfBfBf,D,B,B,cp,FertB,TillD,bare,split,early,PestB,1
DfBpBp,D,Bp,Bp,cp,FertBp,TillD,bare,split,early,PestC,1
DfCfCf,D,C,C,cp,FertC,TillD,bare,split,early,PestC,1
DfCpCp,D,Cp,Cp,cp,FertCp,TillD,bare,split,early,PestD,1
DfDfDf,D,D,D,cp,FertD,TillD,bare,split,early,PestD,1
