SoilName,OxdefPhotoRtfr1,OxdefPhotoRtfr2,OxdefPhoto1,OxdefPhoto2,surfClay,ECEC,ColwellP,PBI,DataSource for ECEC and ColwellP
neil,0.7,1,1,0.7,30,6.3,64,100,"HL SFO, medium Vertosol"
eton,0.7,1,1,0.2,30,6.3,23.5,100,"Donaldson pers comms, Victoria Plains"
mari,0.7,1,1,0.2,17,6.5,45,100,"Masters et al 2008, rainfall sim"
coom,0.5,1,1,0.2,30,6.27,24,149.7,"Coom Series, CSIRO Division of Soils Divisional Report No. 115. Moody P dataset, coom"
teko,0.7,1,1,0.2,13,6.3,16,100,"HL SFO, Pioneer SPC"
sff1,0.5,0.8,1,1,9,2,59,100,"Verberg et al 2001,  SFF site (ECEC), Moody P dataset, Red Dermosol Bundaberg (ColP)"
fmd3,0.5,0.8,1,1,12,6.3,54,100,"Moody P dataset, Fairymead"
stew,0.5,1,1,0.2,34,6.3,36,100,"Moody P dataset, Redoxic Hydrosols in Herbert"
fmd1,0.5,0.8,1,1,11,6.3,70.5,100,"Moody P dataset, Red Kandosol Bundaberg"
todd,0.5,1,1,0.2,61,1.257,63,366,"Moody P dataset, Eubanagee"
garb,0.7,1,1,0.7,35,6.3,75,100,"HL SFO, heavy Vertosol, 2Uge SPC"
kala,0.7,1,1,0.7,30,6.3,28,100,"HL SFO, light Vertosol"
hatc,0.7,1,1,0.7,35,6.3,64,100,"HL SFO, medium Vertosol, 2Uge SPC"
thor,0.5,1,1,0.2,11,4.7,88,59.43,"Thorpe Series,CSIRO Division of Soils Divisional Report No. 115. Moody P dataset, Thorpe"
pingin,0.5,1,1,0.2,61,1.257,63,366,as per todd (new todd soil in WT)
