pesticide,pestmgmt,ratoon_no,sugarDAS,tillageCode,fallow_flag,DAS,sugarStatus,pest_Rate,pest_BandingPercent,ApplicationPosition
Diuron_1,pestb,2,153,,,,,0.5,100,BelowCanopyAboveMulch
Diuron_1,pestb,4,123,,,,,0.5,100,BelowCanopyAboveMulch
Diuron_1,pestc,1,1,,,,,0.465,100,BelowCanopyAboveMulch
Diuron_1,pestc,2,1,,,,,0.465,100,BelowCanopyAboveMulch
Diuron_1,pestc,3,1,,,,,0.465,100,BelowCanopyAboveMulch
Diuron_1,pestc,4,1,,,,,0.465,100,BelowCanopyAboveMulch
Diuron_1,pestc,5,1,,,,,0.465,100,BelowCanopyAboveMulch
Diuron_1,pestd,0,92,,,,,1.55,60,BelowCanopyAboveMulch
Diuron_1,pestd,0,138,,,,,0.5,100,BelowCanopyAboveMulch
Diuron_1,pestd,1,1,,,,,1.03,100,BelowCanopyAboveMulch
Diuron_1,pestd,2,1,,,,,1.03,100,BelowCanopyAboveMulch
Diuron_1,pestd,3,1,,,,,1.03,100,BelowCanopyAboveMulch
Diuron_1,pestd,4,1,,,,,1.03,100,BelowCanopyAboveMulch
Diuron_1,pestd,5,1,,,,,1.03,100,BelowCanopyAboveMulch
Hexazinone_1,pestb,0,78,,,,,2.75,50,BelowCanopyAboveMulch
Hexazinone_1,pestc,0,92,,,,,3.6,100,BelowCanopyAboveMulch
Hexazinone_1,pestc,1,1,,,,,0.9,100,BelowCanopyAboveMulch
Hexazinone_1,pestc,2,1,,,,,0.9,100,BelowCanopyAboveMulch
Hexazinone_1,pestc,3,1,,,,,0.9,100,BelowCanopyAboveMulch
Hexazinone_1,pestc,4,1,,,,,0.9,100,BelowCanopyAboveMulch
Hexazinone_1,pestc,5,1,,,,,0.9,100,BelowCanopyAboveMulch
Hexazinone_1,pestd,0,92,,,,,3,60,BelowCanopyAboveMulch
Hexazinone_1,pestd,1,1,,,,,2,100,BelowCanopyAboveMulch
Hexazinone_1,pestd,2,1,,,,,2,100,BelowCanopyAboveMulch
Hexazinone_1,pestd,3,1,,,,,2,100,BelowCanopyAboveMulch
Hexazinone_1,pestd,4,1,,,,,2,100,BelowCanopyAboveMulch
Hexazinone_1,pestd,5,1,,,,,2,100,BelowCanopyAboveMulch
Atrazine_1,pestc,0,123,,,,,1,100,BelowCanopyAboveMulch
Atrazine_1,pestd,0,138,,,,,1,100,BelowCanopyAboveMulch
Imazapic_1,pestb,0,78,,,,,0.3,50,BelowCanopyAboveMulch
Imazapic_1,pestc,0,92,,,,,0.395,100,BelowCanopyAboveMulch
Isoxaflutole_1,pesta,0,123,,,,,0.2,50,BelowCanopyAboveMulch
Isoxaflutole_1,pestc,0,123,,,,,0.2,100,BelowCanopyAboveMulch
Smetolachlor_1,pesta,0,1,,,,,1.8,50,BelowCanopyAboveMulch
Smetolachlor_1,pestb,0,1,,,,,1.8,50,BelowCanopyAboveMulch
Smetolachlor_1,pestc,0,1,,,,,1.8,100,BelowCanopyAboveMulch
Smetolachlor_1,pestd,0,1,,,,,1.8,100,BelowCanopyAboveMulch
Paraquat_1,pesta,0,1,,,,,1.2,100,BelowCanopyAboveMulch
Paraquat_1,pesta,0,123,,,,,1.2,50,BelowCanopyAboveMulch
Paraquat_1,pestb,0,1,,,,,1.2,100,BelowCanopyAboveMulch
Paraquat_1,pestb,0,123,,,,,1.2,100,BelowCanopyAboveMulch
Paraquat_1,pestb,2,153,,,,,1.2,100,BelowCanopyAboveMulch
Paraquat_1,pestb,4,123,,,,,1.2,100,BelowCanopyAboveMulch
Paraquat_1,pestc,0,1,,,,,1.5,100,BelowCanopyAboveMulch
Paraquat_1,pestc,0,92,,,,,1.2,100,BelowCanopyAboveMulch
Paraquat_1,pestc,0,123,,,,,1.2,100,BelowCanopyAboveMulch
Paraquat_1,pestc,1,1,,,,,1.2,100,BelowCanopyAboveMulch
Paraquat_1,pestc,2,1,,,,,1.2,100,BelowCanopyAboveMulch
Paraquat_1,pestc,3,1,,,,,1.2,100,BelowCanopyAboveMulch
Paraquat_1,pestc,4,1,,,,,1.2,100,BelowCanopyAboveMulch
Paraquat_1,pestc,5,1,,,,,1.2,100,BelowCanopyAboveMulch
Paraquat_1,pestd,0,1,,,,,1.6,100,BelowCanopyAboveMulch
Paraquat_1,pestd,0,92,,,,,1.2,100,BelowCanopyAboveMulch
Paraquat_1,pestd,0,138,,,,,1.6,100,BelowCanopyAboveMulch
Paraquat_1,pestd,1,1,,,,,1.5,100,BelowCanopyAboveMulch
Paraquat_1,pestd,2,1,,,,,1.5,100,BelowCanopyAboveMulch
Paraquat_1,pestd,3,1,,,,,1.5,100,BelowCanopyAboveMulch
Paraquat_1,pestd,4,1,,,,,1.5,100,BelowCanopyAboveMulch
Paraquat_1,pestd,5,1,,,,,1.5,100,BelowCanopyAboveMulch
Paraquat_1,,,,tilla|tillap|tillb,1,120,out,1.62,100,AboveCanopy
Paraquat_1,,,,tillbp|tillc,1,120,out,1.62,100,AboveCanopy
Fluroxypyr_1,pesta,0,153,,,,,0.7,100,AboveCanopy
Fluroxypyr_1,pesta,1,122,,,,,0.7,100,AboveCanopy
Fluroxypyr_1,pesta,2,153,,,,,0.7,100,AboveCanopy
Fluroxypyr_1,pesta,3,91,,,,,0.7,100,AboveCanopy
Fluroxypyr_1,pesta,4,61,,,,,0.7,100,AboveCanopy
Fluroxypyr_1,pesta,5,61,,,,,0.7,100,AboveCanopy
Fluroxypyr_1,pestb,0,153,,,,,0.7,100,AboveCanopy
Fluroxypyr_1,pestb,1,122,,,,,0.7,100,AboveCanopy
Fluroxypyr_1,pestb,2,1,,,,,0.8,100,AboveCanopy
Fluroxypyr_1,pestb,3,91,,,,,0.7,100,AboveCanopy
Fluroxypyr_1,pestb,4,1,,,,,0.8,100,AboveCanopy
Fluroxypyr_1,pestb,5,61,,,,,0.7,100,AboveCanopy
Fluroxypyr_1,pestc,0,168,,,,,0.8,100,AboveCanopy
Fluroxypyr_1,pestc,1,122,,,,,0.8,100,AboveCanopy
Fluroxypyr_1,pestc,2,153,,,,,0.8,100,AboveCanopy
Fluroxypyr_1,pestc,3,153,,,,,0.8,100,AboveCanopy
Fluroxypyr_1,pestc,4,123,,,,,0.8,100,AboveCanopy
Fluroxypyr_1,pestc,5,123,,,,,0.8,100,AboveCanopy
Fluroxypyr_1,pestd,0,168,,,,,1,100,AboveCanopy
Fluroxypyr_1,pestd,1,122,,,,,1,100,AboveCanopy
Fluroxypyr_1,pestd,2,153,,,,,1,100,AboveCanopy
Fluroxypyr_1,pestd,3,153,,,,,1,100,AboveCanopy
Fluroxypyr_1,pestd,4,123,,,,,1,100,AboveCanopy
Fluroxypyr_1,pestd,5,123,,,,,1,100,AboveCanopy
twofourD_1,pesta,0,153,,,,,2.43,100,AboveCanopy
twofourD_1,pesta,1,122,,,,,2.43,100,AboveCanopy
twofourD_1,pesta,2,153,,,,,2.43,100,AboveCanopy
twofourD_1,pesta,3,91,,,,,2.43,100,AboveCanopy
twofourD_1,pesta,4,61,,,,,2.43,100,AboveCanopy
twofourD_1,pesta,5,61,,,,,2.43,100,AboveCanopy
twofourD_1,pestb,0,153,,,,,2.43,100,AboveCanopy
twofourD_1,pestb,1,122,,,,,2.43,100,AboveCanopy
twofourD_1,pestb,2,1,,,,,2.66,100,AboveCanopy
twofourD_1,pestb,3,91,,,,,2.43,100,AboveCanopy
twofourD_1,pestb,4,1,,,,,2.66,100,AboveCanopy
twofourD_1,pestb,5,61,,,,,2.43,100,AboveCanopy
twofourD_1,pestc,0,123,,,,,2.33,100,AboveCanopy
twofourD_1,pestc,0,168,,,,,1.96,100,AboveCanopy
twofourD_1,pestc,1,122,,,,,1.96,100,AboveCanopy
twofourD_1,pestc,2,153,,,,,1.96,100,AboveCanopy
twofourD_1,pestc,3,153,,,,,1.96,100,AboveCanopy
twofourD_1,pestc,4,123,,,,,1.96,100,AboveCanopy
twofourD_1,pestc,5,123,,,,,1.96,100,AboveCanopy
twofourD_1,pestd,0,138,,,,,3.728,100,AboveCanopy
twofourD_1,pestd,0,168,,,,,3.33,100,AboveCanopy
twofourD_1,pestd,1,122,,,,,3.33,100,AboveCanopy
twofourD_1,pestd,2,153,,,,,3.33,100,AboveCanopy
twofourD_1,pestd,3,153,,,,,3.33,100,AboveCanopy
twofourD_1,pestd,4,123,,,,,3.33,100,AboveCanopy
twofourD_1,pestd,5,123,,,,,3.33,100,AboveCanopy
twofourD_1,,,,tilla|tillap|tillb,1,120,out,1,100,AboveCanopy
twofourD_1,,,,tillbp|tillc,1,120,out,1,100,AboveCanopy
Glyphosate_1,,,,tilla|tillap|tillb,1,120,out,2,100,AboveCanopy
Glyphosate_1,,,,tillbp|tillc,1,35,out,2,100,AboveCanopy
Glyphosate_1,,,,tillcp,1,16,out,6,100,AboveCanopy
Haloxyfop_1,,,,tilla|tillap|tillb,1,30,out,0.6,100,AboveCanopy
Haloxyfop_1,,,,tillbp|tillc,1,24,out,0.6,100,AboveCanopy
Diuron_2,pestb,2,153,,,,,0.5,100,BelowCanopyAboveMulch
Diuron_2,pestc,0,92,,,,,1.03,100,BelowCanopyAboveMulch
Diuron_2,pestc,1,1,,,,,0.465,100,BelowCanopyAboveMulch
Diuron_2,pestc,2,1,,,,,0.465,100,BelowCanopyAboveMulch
Diuron_2,pestc,3,1,,,,,0.465,100,BelowCanopyAboveMulch
Diuron_2,pestc,4,1,,,,,0.465,100,BelowCanopyAboveMulch
Diuron_2,pestc,5,1,,,,,0.465,100,BelowCanopyAboveMulch
Diuron_2,pestd,0,92,,,,,1.55,60,BelowCanopyAboveMulch
Diuron_2,pestd,0,138,,,,,0.5,100,BelowCanopyAboveMulch
Diuron_2,pestd,1,1,,,,,1.03,100,BelowCanopyAboveMulch
Diuron_2,pestd,2,1,,,,,1.03,100,BelowCanopyAboveMulch
Diuron_2,pestd,3,1,,,,,1.03,100,BelowCanopyAboveMulch
Diuron_2,pestd,4,1,,,,,1.03,100,BelowCanopyAboveMulch
Diuron_2,pestd,5,1,,,,,1.03,100,BelowCanopyAboveMulch
Hexazinone_2,pestc,0,92,,,,,2,100,BelowCanopyAboveMulch
Hexazinone_2,pestc,1,1,,,,,0.9,100,BelowCanopyAboveMulch
Hexazinone_2,pestc,2,1,,,,,0.9,100,BelowCanopyAboveMulch
Hexazinone_2,pestc,3,1,,,,,0.9,100,BelowCanopyAboveMulch
Hexazinone_2,pestc,4,1,,,,,0.9,100,BelowCanopyAboveMulch
Hexazinone_2,pestc,5,1,,,,,0.9,100,BelowCanopyAboveMulch
Hexazinone_2,pestd,0,92,,,,,3,60,BelowCanopyAboveMulch
Hexazinone_2,pestd,1,1,,,,,2,100,BelowCanopyAboveMulch
Hexazinone_2,pestd,2,1,,,,,2,100,BelowCanopyAboveMulch
Hexazinone_2,pestd,3,1,,,,,2,100,BelowCanopyAboveMulch
Hexazinone_2,pestd,4,1,,,,,2,100,BelowCanopyAboveMulch
Hexazinone_2,pestd,5,1,,,,,2,100,BelowCanopyAboveMulch
Atrazine_2,pesta,0,1,,,,,2,50,BelowCanopyAboveMulch
Atrazine_2,pestb,0,1,,,,,2.5,50,BelowCanopyAboveMulch
Atrazine_2,pestc,0,1,,,,,2.5,100,BelowCanopyAboveMulch
Atrazine_2,pestd,0,1,,,,,3.3,100,BelowCanopyAboveMulch
Atrazine_2,pestb,4,123,,,,,1,100,BelowCanopyAboveMulch
Atrazine_2,pestc,1,1,,,,,1,100,BelowCanopyAboveMulch
Atrazine_2,pestd,1,1,,,,,2.2,100,BelowCanopyAboveMulch
Isoxaflutole_2,pesta,0,123,,,,,0.2,50,BelowCanopyAboveMulch
Isoxaflutole_2,pestb,0,78,,,,,0.2,50,BelowCanopyAboveMulch
Isoxaflutole_2,pestc,0,123,,,,,0.2,100,BelowCanopyAboveMulch
Imazapic_2,pestb,0,78,,,,,0.3,50,BelowCanopyAboveMulch
Metribuzin_2,pestc,0,123,,,,,1.6,100,BelowCanopyAboveMulch
Metribuzin_2,pestd,0,138,,,,,1.6,100,BelowCanopyAboveMulch
Pendimethalin_2,pesta,0,1,,,,,2.25,50,BelowCanopyAboveMulch
Pendimethalin_2,pestb,0,1,,,,,3.3,50,BelowCanopyAboveMulch
Pendimethalin_2,pestc,0,1,,,,,3.3,100,BelowCanopyAboveMulch
Pendimethalin_2,pestd,0,1,,,,,3.4,100,BelowCanopyAboveMulch
Paraquat_2,pesta,0,1,,,,,1.2,100,BelowCanopyAboveMulch
Paraquat_2,pesta,0,123,,,,,1.2,50,BelowCanopyAboveMulch
Paraquat_2,pestb,0,1,,,,,1.2,100,BelowCanopyAboveMulch
Paraquat_2,pestb,0,123,,,,,1.2,100,BelowCanopyAboveMulch
Paraquat_2,pestb,2,153,,,,,1.2,100,BelowCanopyAboveMulch
Paraquat_2,pestb,4,123,,,,,1.2,100,BelowCanopyAboveMulch
Paraquat_2,pestc,0,1,,,,,1.5,100,BelowCanopyAboveMulch
Paraquat_2,pestc,0,92,,,,,1.2,100,BelowCanopyAboveMulch
Paraquat_2,pestc,0,123,,,,,1.2,100,BelowCanopyAboveMulch
Paraquat_2,pestc,1,1,,,,,1.2,100,BelowCanopyAboveMulch
Paraquat_2,pestc,2,1,,,,,1.2,100,BelowCanopyAboveMulch
Paraquat_2,pestc,3,1,,,,,1.2,100,BelowCanopyAboveMulch
Paraquat_2,pestc,4,1,,,,,1.2,100,BelowCanopyAboveMulch
Paraquat_2,pestc,5,1,,,,,1.2,100,BelowCanopyAboveMulch
Paraquat_2,pestd,0,1,,,,,1.6,100,BelowCanopyAboveMulch
Paraquat_2,pestd,0,92,,,,,1.2,100,BelowCanopyAboveMulch
Paraquat_2,pestd,0,138,,,,,1.6,100,BelowCanopyAboveMulch
Paraquat_2,pestd,1,1,,,,,1.5,100,BelowCanopyAboveMulch
Paraquat_2,pestd,2,1,,,,,1.5,100,BelowCanopyAboveMulch
Paraquat_2,pestd,3,1,,,,,1.5,100,BelowCanopyAboveMulch
Paraquat_2,pestd,4,1,,,,,1.5,100,BelowCanopyAboveMulch
Paraquat_2,pestd,5,1,,,,,1.5,100,BelowCanopyAboveMulch
Paraquat_2,,,,tilla|tillap|tillb,1,120,out,1.62,100,AboveCanopy
Paraquat_2,,,,tillbp|tillc,1,120,out,1.62,100,AboveCanopy
Fluroxypyr_2,pesta,0,153,,,,,0.7,100,AboveCanopy
Fluroxypyr_2,pesta,1,122,,,,,0.7,100,AboveCanopy
Fluroxypyr_2,pesta,2,153,,,,,0.7,100,AboveCanopy
Fluroxypyr_2,pesta,3,91,,,,,0.7,100,AboveCanopy
Fluroxypyr_2,pesta,4,61,,,,,0.7,100,AboveCanopy
Fluroxypyr_2,pesta,5,61,,,,,0.7,100,AboveCanopy
Fluroxypyr_2,pestb,0,153,,,,,0.7,100,AboveCanopy
Fluroxypyr_2,pestb,1,122,,,,,0.7,100,AboveCanopy
Fluroxypyr_2,pestb,2,1,,,,,0.8,100,AboveCanopy
Fluroxypyr_2,pestb,3,91,,,,,0.7,100,AboveCanopy
Fluroxypyr_2,pestb,4,1,,,,,0.8,100,AboveCanopy
Fluroxypyr_2,pestb,5,61,,,,,0.7,100,AboveCanopy
Fluroxypyr_2,pestc,0,168,,,,,0.8,100,AboveCanopy
Fluroxypyr_2,pestc,1,122,,,,,0.8,100,AboveCanopy
Fluroxypyr_2,pestc,2,153,,,,,0.8,100,AboveCanopy
Fluroxypyr_2,pestc,3,153,,,,,0.8,100,AboveCanopy
Fluroxypyr_2,pestc,4,123,,,,,0.8,100,AboveCanopy
Fluroxypyr_2,pestc,5,123,,,,,0.8,100,AboveCanopy
Fluroxypyr_2,pestd,0,168,,,,,1,100,AboveCanopy
Fluroxypyr_2,pestd,1,122,,,,,1,100,AboveCanopy
Fluroxypyr_2,pestd,2,153,,,,,1,100,AboveCanopy
Fluroxypyr_2,pestd,3,153,,,,,1,100,AboveCanopy
Fluroxypyr_2,pestd,4,123,,,,,1,100,AboveCanopy
Fluroxypyr_2,pestd,5,123,,,,,1,100,AboveCanopy
twofourD_2,pesta,0,153,,,,,2.43,100,AboveCanopy
twofourD_2,pesta,1,122,,,,,2.43,100,AboveCanopy
twofourD_2,pesta,2,153,,,,,2.43,100,AboveCanopy
twofourD_2,pesta,3,91,,,,,2.43,100,AboveCanopy
twofourD_2,pesta,4,61,,,,,2.43,100,AboveCanopy
twofourD_2,pesta,5,61,,,,,2.43,100,AboveCanopy
twofourD_2,pestb,0,153,,,,,2.43,100,AboveCanopy
twofourD_2,pestb,1,122,,,,,2.43,100,AboveCanopy
twofourD_2,pestb,2,1,,,,,2.66,100,AboveCanopy
twofourD_2,pestb,3,91,,,,,2.43,100,AboveCanopy
twofourD_2,pestb,4,1,,,,,2.66,100,AboveCanopy
twofourD_2,pestb,5,61,,,,,2.43,100,AboveCanopy
twofourD_2,pestc,0,123,,,,,2.33,100,AboveCanopy
twofourD_2,pestc,0,168,,,,,1.96,100,AboveCanopy
twofourD_2,pestc,1,122,,,,,1.96,100,AboveCanopy
twofourD_2,pestc,2,153,,,,,1.96,100,AboveCanopy
twofourD_2,pestc,3,153,,,,,1.96,100,AboveCanopy
twofourD_2,pestc,4,123,,,,,1.96,100,AboveCanopy
twofourD_2,pestc,5,123,,,,,1.96,100,AboveCanopy
twofourD_2,pestd,0,138,,,,,3.728,100,AboveCanopy
twofourD_2,pestd,0,168,,,,,3.33,100,AboveCanopy
twofourD_2,pestd,1,122,,,,,3.33,100,AboveCanopy
twofourD_2,pestd,2,153,,,,,3.33,100,AboveCanopy
twofourD_2,pestd,3,153,,,,,3.33,100,AboveCanopy
twofourD_2,pestd,4,123,,,,,3.33,100,AboveCanopy
twofourD_2,pestd,5,123,,,,,3.33,100,AboveCanopy
twofourD_2,,,,tilla|tillap|tillb,1,120,out,1,100,AboveCanopy
twofourD_2,,,,tillbp|tillc,1,120,out,1,100,AboveCanopy
Glyphosate_2,,,,tilla|tillap|tillb,1,120,out,2,100,AboveCanopy
Glyphosate_2,,,,tillbp|tillc,1,35,out,2,100,AboveCanopy
Glyphosate_2,,,,tillcp,1,16,out,6,100,AboveCanopy
Haloxyfop_2,,,,tilla|tillap|tillb,1,30,out,0.6,100,AboveCanopy
Haloxyfop_2,,,,tillbp|tillc,1,24,out,0.6,100,AboveCanopy
